funcs_primary;min_nSAD_func;min_nSAD;min_nHammingCP_func;min_nHammingCP;basin_closest_1_func;basin_closest_1;attractors_closest_1_func;attractors_closest_1;max_percent_full_match_func;max_percent_full_match
"[[1. 0. 0. 0. 1. 1. 1. 0. 1. 1.]
 [0. 1. 1. 1. 0. 0. 0. 1. 0. 0.]]";[array([1., 1., 0., 0.])];0.0030108564492027593;[array([1., 1., 0., 1.])];0.75;[array([0., 1., 0., 0.]), array([1., 1., 0., 0.]), array([1., 1., 0., 1.])];1.0;[array([0., 1., 0., 0.]), array([1., 1., 0., 0.]), array([1., 1., 0., 1.])];1.0;[array([0., 1., 0., 1.])];50.0
"[[0. 1. 1. 1. 0. 0. 1. 0. 1. 1.]
 [1. 0. 0. 0. 1. 1. 0. 1. 0. 0.]]";[array([1., 1., 0., 0.])];0.0030108564492027584;[array([0., 1., 0., 0.]), array([1., 1., 0., 1.])];0.5;[array([0., 1., 0., 0.]), array([1., 1., 0., 0.]), array([1., 1., 0., 1.])];1.0;[array([0., 1., 0., 0.]), array([1., 1., 0., 0.]), array([1., 1., 0., 1.])];1.0;[array([0., 1., 0., 1.])];50.0
"[[0. 0. 1. 0. 1. 0. 0. 0. 1. 1.]
 [1. 1. 0. 1. 0. 1. 1. 1. 0. 0.]]";[array([0., 0., 1., 1.])];0.001730685992401613;[array([0., 0., 0., 1.]), array([0., 1., 0., 1.]), array([0., 1., 1., 1.])];0.75;[array([0., 0., 1., 1.])];1.0;[array([0., 0., 1., 1.])];1.0;[array([0., 0., 0., 1.]), array([0., 0., 1., 1.]), array([0., 1., 0., 1.]), array([0., 1., 1., 1.])];50.0
"[[1. 0. 0. 1. 1. 0. 0. 1. 0. 1.]
 [0. 1. 1. 0. 0. 1. 1. 0. 1. 0.]]";[array([1., 0., 1., 1.])];0.002181505411037059;[array([0., 0., 1., 0.]), array([1., 0., 1., 1.])];0.5;[array([0., 0., 1., 0.]), array([0., 0., 1., 1.]), array([1., 0., 1., 1.])];1.0;[array([0., 0., 1., 0.]), array([0., 0., 1., 1.]), array([1., 0., 1., 1.])];1.0;[array([0., 0., 1., 0.]), array([1., 0., 1., 0.]), array([1., 0., 1., 1.])];50.0
"[[0. 1. 1. 0. 1. 1. 1. 0. 0. 1.]
 [1. 0. 0. 1. 0. 0. 0. 1. 1. 0.]]";[array([1., 1., 0., 0.])];0.003010856449202759;[array([1., 1., 0., 0.]), array([1., 1., 0., 1.])];0.625;[array([0., 1., 0., 0.]), array([1., 1., 0., 0.]), array([1., 1., 0., 1.])];1.0;[array([0., 1., 0., 0.]), array([1., 1., 0., 0.]), array([1., 1., 0., 1.])];1.0;[array([0., 1., 0., 1.])];50.0
"[[1. 1. 0. 0. 0. 0. 1. 1. 1. 1.]
 [0. 0. 1. 1. 1. 1. 0. 0. 0. 0.]]";[array([1., 1., 0., 0.])];0.0017306859924016127;[array([1., 0., 0., 0.]), array([1., 1., 0., 0.])];0.25;[array([1., 0., 0., 0.]), array([1., 1., 0., 0.]), array([1., 1., 1., 0.])];1.0;[array([1., 1., 0., 0.])];1.0;[array([1., 0., 0., 0.]), array([1., 0., 1., 0.]), array([1., 1., 0., 0.]), array([1., 1., 1., 0.])];50.0
"[[0. 0. 1. 1. 0. 1. 1. 0. 0. 0.]
 [1. 1. 0. 0. 1. 0. 0. 1. 1. 1.]]";[array([1., 1., 0., 0.])];0.0017306859924016097;[array([0., 1., 0., 1.]), array([1., 1., 0., 0.]), array([1., 1., 0., 1.])];0.25;[array([1., 1., 0., 0.])];1.0;[array([1., 1., 0., 0.])];1.0;[array([0., 1., 0., 0.]), array([0., 1., 0., 1.]), array([1., 1., 0., 0.]), array([1., 1., 0., 1.])];50.0
"[[0. 1. 1. 0. 1. 0. 0. 1. 0. 1.]
 [1. 0. 0. 1. 0. 1. 1. 0. 1. 0.]]";[array([1., 0., 1., 1.])];0.0021815054110370597;[array([0., 0., 1., 0.])];0.25;[array([0., 0., 1., 0.]), array([0., 0., 1., 1.]), array([1., 0., 1., 1.])];1.0;[array([0., 0., 1., 0.]), array([0., 0., 1., 1.]), array([1., 0., 1., 1.])];1.0;[array([0., 0., 1., 0.]), array([1., 0., 1., 0.]), array([1., 0., 1., 1.])];50.0
"[[0. 1. 0. 1. 1. 1. 0. 1. 1. 0.]
 [1. 0. 1. 0. 0. 0. 1. 0. 0. 1.]]";[array([0., 0., 1., 0.])];0.00218150541103706;[array([1., 0., 1., 1.])];0.5;[array([0., 0., 1., 0.]), array([0., 0., 1., 1.]), array([1., 0., 1., 1.])];1.0;[array([0., 0., 1., 0.]), array([0., 0., 1., 1.]), array([1., 0., 1., 1.])];1.0;[array([0., 0., 1., 0.]), array([1., 0., 1., 0.]), array([1., 0., 1., 1.])];50.0
"[[1. 1. 0. 1. 1. 1. 0. 1. 1. 0.]
 [0. 0. 1. 0. 0. 0. 1. 0. 0. 1.]]";[array([0., 0., 1., 1.])];0.0017306859924016104;[array([0., 0., 1., 0.])];0.625;[array([0., 0., 1., 0.]), array([0., 0., 1., 1.]), array([1., 0., 1., 1.])];1.0;[array([0., 0., 1., 1.])];1.0;[array([0., 0., 1., 0.]), array([0., 0., 1., 1.]), array([1., 0., 1., 0.]), array([1., 0., 1., 1.])];50.0
"[[0. 0. 0. 0. 1. 0. 0. 0. 1. 1.]
 [1. 1. 1. 1. 0. 1. 1. 1. 0. 0.]]";[array([0., 0., 1., 1.])];0.001730685992401612;[array([0., 0., 0., 1.]), array([0., 1., 0., 1.])];0.5;[array([0., 0., 1., 1.])];1.0;[array([0., 0., 1., 1.])];1.0;[array([0., 0., 0., 1.]), array([0., 0., 1., 1.]), array([0., 1., 0., 1.]), array([0., 1., 1., 1.])];50.0
"[[0. 1. 1. 0. 1. 0. 0. 0. 0. 1.]
 [1. 0. 0. 1. 0. 1. 1. 1. 1. 0.]]";[array([0., 0., 1., 1.])];0.0030108564492027584;[array([0., 0., 0., 1.])];0.25;[array([0., 0., 0., 1.]), array([0., 0., 1., 1.]), array([0., 1., 1., 1.])];1.0;[array([0., 0., 0., 1.]), array([0., 0., 1., 1.]), array([0., 1., 1., 1.])];1.0;[array([0., 1., 0., 1.])];50.0
"[[1. 1. 0. 1. 0. 1. 1. 0. 0. 1.]
 [0. 0. 1. 0. 1. 0. 0. 1. 1. 0.]]";[array([1., 1., 0., 0.])];0.0017306859924016114;[array([0., 1., 0., 0.])];0.375;[array([1., 1., 0., 0.])];1.0;[array([1., 1., 0., 0.])];1.0;[array([0., 1., 0., 0.]), array([0., 1., 0., 1.]), array([1., 1., 0., 0.]), array([1., 1., 0., 1.])];50.0
"[[0. 0. 1. 0. 0. 0. 1. 1. 0. 0.]
 [1. 1. 0. 1. 1. 1. 0. 0. 1. 1.]]";[array([1., 1., 0., 0.])];0.0017306859924016101;[array([1., 1., 1., 0.])];0.375;[array([1., 0., 0., 0.]), array([1., 1., 0., 0.]), array([1., 1., 1., 0.])];1.0;[array([1., 1., 0., 0.])];1.0;[array([1., 0., 0., 0.]), array([1., 0., 1., 0.]), array([1., 1., 0., 0.]), array([1., 1., 1., 0.])];50.0
"[[1. 1. 0. 0. 0. 0. 1. 0. 1. 0.]
 [0. 0. 1. 1. 1. 1. 0. 1. 0. 1.]]";[array([1., 1., 0., 0.])];0.0017306859924016104;[array([1., 1., 0., 1.])];0.0;[array([1., 1., 0., 0.])];1.0;[array([1., 1., 0., 0.])];1.0;[array([0., 1., 0., 0.]), array([0., 1., 0., 1.]), array([1., 1., 0., 0.]), array([1., 1., 0., 1.])];50.0
"[[1. 1. 0. 0. 0. 0. 1. 0. 1. 1.]
 [0. 0. 1. 1. 1. 1. 0. 1. 0. 0.]]";[array([1., 1., 0., 0.])];0.0017306859924016101;[array([0., 1., 0., 0.])];0.25;[array([1., 1., 0., 0.])];1.0;[array([1., 1., 0., 0.])];1.0;[array([0., 1., 0., 0.]), array([0., 1., 0., 1.]), array([1., 1., 0., 0.]), array([1., 1., 0., 1.])];50.0
"[[0. 1. 0. 1. 1. 0. 1. 1. 1. 1.]
 [1. 0. 1. 0. 0. 1. 0. 0. 0. 0.]]";[array([1., 1., 1., 0.])];0.0021815054110370605;[array([1., 0., 0., 0.])];0.0;[array([1., 0., 0., 0.]), array([1., 1., 0., 0.]), array([1., 1., 1., 0.])];1.0;[array([1., 0., 0., 0.]), array([1., 1., 0., 0.]), array([1., 1., 1., 0.])];1.0;[array([1., 0., 0., 0.]), array([1., 0., 1., 0.]), array([1., 1., 1., 0.])];50.0
"[[1. 0. 1. 1. 1. 0. 0. 1. 1. 1.]
 [0. 1. 0. 0. 0. 1. 1. 0. 0. 0.]]";[array([1., 0., 1., 1.])];0.002181505411037059;[array([0., 0., 1., 0.]), array([1., 0., 1., 0.])];0.5;[array([0., 0., 1., 0.]), array([0., 0., 1., 1.]), array([1., 0., 1., 1.])];1.0;[array([0., 0., 1., 0.]), array([0., 0., 1., 1.]), array([1., 0., 1., 1.])];1.0;[array([0., 0., 1., 0.]), array([1., 0., 1., 0.]), array([1., 0., 1., 1.])];50.0
"[[0. 0. 0. 0. 1. 0. 0. 1. 1. 1.]
 [1. 1. 1. 1. 0. 1. 1. 0. 0. 0.]]";[array([0., 0., 1., 1.])];0.0017306859924016106;[array([1., 0., 1., 1.])];0.0;[array([0., 0., 1., 0.]), array([0., 0., 1., 1.]), array([1., 0., 1., 1.])];1.0;[array([0., 0., 1., 1.])];1.0;[array([0., 0., 1., 0.]), array([0., 0., 1., 1.]), array([1., 0., 1., 0.]), array([1., 0., 1., 1.])];50.0
"[[1. 1. 1. 0. 1. 0. 0. 0. 0. 0.]
 [0. 0. 0. 1. 0. 1. 1. 1. 1. 1.]]";[array([0., 0., 1., 1.])];0.0017306859924016112;[array([0., 0., 0., 1.])];0.375;[array([0., 0., 1., 1.])];1.0;[array([0., 0., 1., 1.])];1.0;[array([0., 0., 0., 1.]), array([0., 0., 1., 1.]), array([0., 1., 0., 1.]), array([0., 1., 1., 1.])];50.0
"[[1. 1. 0. 1. 1. 1. 1. 1. 0. 1.]
 [0. 0. 1. 0. 0. 0. 0. 0. 1. 0.]]";[array([1., 1., 0., 0.])];0.001730685992401608;[array([1., 0., 1., 0.])];0.625;[array([1., 0., 0., 0.]), array([1., 1., 0., 0.]), array([1., 1., 1., 0.])];1.0;[array([1., 1., 0., 0.])];1.0;[array([1., 0., 0., 0.]), array([1., 0., 1., 0.]), array([1., 1., 0., 0.]), array([1., 1., 1., 0.])];50.0
"[[0. 0. 0. 1. 1. 1. 1. 1. 0. 1.]
 [1. 1. 1. 0. 0. 0. 0. 0. 1. 0.]]";[array([1., 1., 0., 0.])];0.001730685992401608;[array([1., 0., 1., 0.])];0.25;[array([1., 0., 0., 0.]), array([1., 1., 0., 0.]), array([1., 1., 1., 0.])];1.0;[array([1., 1., 0., 0.])];1.0;[array([1., 0., 0., 0.]), array([1., 0., 1., 0.]), array([1., 1., 0., 0.]), array([1., 1., 1., 0.])];50.0
"[[1. 1. 1. 1. 0. 1. 0. 1. 1. 0.]
 [0. 0. 0. 0. 1. 0. 1. 0. 0. 1.]]";[array([0., 0., 1., 1.])];0.0017306859924016101;[array([0., 0., 1., 1.])];0.625;[array([0., 0., 1., 0.]), array([0., 0., 1., 1.]), array([1., 0., 1., 1.])];1.0;[array([0., 0., 1., 1.])];1.0;[array([0., 0., 1., 0.]), array([0., 0., 1., 1.]), array([1., 0., 1., 0.]), array([1., 0., 1., 1.])];50.0
"[[1. 1. 0. 1. 0. 0. 1. 1. 0. 0.]
 [0. 0. 1. 0. 1. 1. 0. 0. 1. 1.]]";[array([1., 1., 0., 0.])];0.0017306859924016088;[array([1., 1., 1., 0.])];0.375;[array([1., 0., 0., 0.]), array([1., 1., 0., 0.]), array([1., 1., 1., 0.])];1.0;[array([1., 1., 0., 0.])];1.0;[array([1., 0., 0., 0.]), array([1., 0., 1., 0.]), array([1., 1., 0., 0.]), array([1., 1., 1., 0.])];50.0
"[[0. 1. 1. 1. 1. 1. 1. 1. 0. 1.]
 [1. 0. 0. 0. 0. 0. 0. 0. 1. 0.]]";[array([1., 1., 1., 0.])];0.0021815054110370597;[array([1., 1., 0., 0.])];0.625;[array([1., 0., 0., 0.]), array([1., 1., 0., 0.]), array([1., 1., 1., 0.])];1.0;[array([1., 0., 0., 0.]), array([1., 1., 0., 0.]), array([1., 1., 1., 0.])];1.0;[array([1., 0., 0., 0.]), array([1., 0., 1., 0.]), array([1., 1., 1., 0.])];50.0
"[[0. 1. 0. 0. 0. 1. 1. 0. 1. 0.]
 [1. 0. 1. 1. 1. 0. 0. 1. 0. 1.]]";[array([1., 1., 0., 0.])];0.0030108564492027584;[array([0., 1., 0., 0.])];0.0;[array([0., 1., 0., 0.]), array([1., 1., 0., 0.]), array([1., 1., 0., 1.])];1.0;[array([0., 1., 0., 0.]), array([1., 1., 0., 0.]), array([1., 1., 0., 1.])];1.0;[array([0., 1., 0., 1.])];50.0
"[[0. 1. 1. 1. 0. 0. 0. 0. 1. 1.]
 [1. 0. 0. 0. 1. 1. 1. 1. 0. 0.]]";[array([0., 0., 1., 1.])];0.003010856449202759;[array([0., 1., 1., 1.])];0.5;[array([0., 0., 0., 1.]), array([0., 0., 1., 1.]), array([0., 1., 1., 1.])];1.0;[array([0., 0., 0., 1.]), array([0., 0., 1., 1.]), array([0., 1., 1., 1.])];1.0;[array([0., 1., 0., 1.])];50.0
"[[1. 1. 1. 1. 0. 0. 0. 0. 0. 0.]
 [0. 0. 0. 0. 1. 1. 1. 1. 1. 1.]]";[array([0., 0., 1., 1.])];0.0017306859924016101;[array([0., 0., 1., 1.])];0.5;[array([0., 0., 1., 1.])];1.0;[array([0., 0., 1., 1.])];1.0;[array([0., 0., 0., 1.]), array([0., 0., 1., 1.]), array([0., 1., 0., 1.]), array([0., 1., 1., 1.])];50.0
"[[1. 1. 1. 0. 1. 0. 0. 1. 0. 1.]
 [0. 0. 0. 1. 0. 1. 1. 0. 1. 0.]]";[array([0., 0., 1., 1.])];0.001730685992401611;[array([0., 0., 1., 0.]), array([0., 0., 1., 1.]), array([1., 0., 1., 1.])];0.5;[array([0., 0., 1., 0.]), array([0., 0., 1., 1.]), array([1., 0., 1., 1.])];1.0;[array([0., 0., 1., 1.])];1.0;[array([0., 0., 1., 0.]), array([0., 0., 1., 1.]), array([1., 0., 1., 0.]), array([1., 0., 1., 1.])];50.0
"[[1. 1. 0. 0. 1. 1. 1. 0. 0. 1.]
 [0. 0. 1. 1. 0. 0. 0. 1. 1. 0.]]";[array([1., 1., 0., 0.])];0.00173068599240161;[array([0., 1., 0., 0.])];0.75;[array([1., 1., 0., 0.])];1.0;[array([1., 1., 0., 0.])];1.0;[array([0., 1., 0., 0.]), array([0., 1., 0., 1.]), array([1., 1., 0., 0.]), array([1., 1., 0., 1.])];50.0
"[[0. 0. 1. 1. 1. 1. 0. 1. 1. 1.]
 [1. 1. 0. 0. 0. 0. 1. 0. 0. 0.]]";[array([0., 0., 1., 1.])];0.0017306859924016097;[array([0., 0., 1., 0.])];0.375;[array([0., 0., 1., 0.]), array([0., 0., 1., 1.]), array([1., 0., 1., 1.])];1.0;[array([0., 0., 1., 1.])];1.0;[array([0., 0., 1., 0.]), array([0., 0., 1., 1.]), array([1., 0., 1., 0.]), array([1., 0., 1., 1.])];50.0
"[[0. 1. 0. 0. 0. 1. 1. 1. 0. 1.]
 [1. 0. 1. 1. 1. 0. 0. 0. 1. 0.]]";[array([1., 1., 1., 0.])];0.0021815054110370597;[array([1., 0., 0., 0.]), array([1., 1., 1., 0.])];0.625;[array([1., 0., 0., 0.]), array([1., 1., 0., 0.]), array([1., 1., 1., 0.])];1.0;[array([1., 0., 0., 0.]), array([1., 1., 0., 0.]), array([1., 1., 1., 0.])];1.0;[array([1., 0., 0., 0.]), array([1., 0., 1., 0.]), array([1., 1., 1., 0.])];50.0
"[[0. 0. 0. 0. 0. 0. 0. 1. 1. 0.]
 [1. 1. 1. 1. 1. 1. 1. 0. 0. 1.]]";[array([0., 0., 1., 1.])];0.0017306859924016106;[array([0., 0., 1., 0.]), array([1., 0., 1., 0.]), array([1., 0., 1., 1.])];0.875;[array([0., 0., 1., 0.]), array([0., 0., 1., 1.]), array([1., 0., 1., 1.])];1.0;[array([0., 0., 1., 1.])];1.0;[array([0., 0., 1., 0.]), array([0., 0., 1., 1.]), array([1., 0., 1., 0.]), array([1., 0., 1., 1.])];50.0
"[[0. 0. 0. 0. 0. 1. 0. 0. 1. 0.]
 [1. 1. 1. 1. 1. 0. 1. 1. 0. 1.]]";[array([0., 0., 1., 1.])];0.0017306859924016117;[array([0., 1., 1., 1.])];0.5;[array([0., 0., 1., 1.])];1.0;[array([0., 0., 1., 1.])];1.0;[array([0., 0., 0., 1.]), array([0., 0., 1., 1.]), array([0., 1., 0., 1.]), array([0., 1., 1., 1.])];50.0
"[[0. 1. 1. 0. 1. 1. 0. 1. 0. 1.]
 [1. 0. 0. 1. 0. 0. 1. 0. 1. 0.]]";[array([0., 0., 1., 0.]), array([1., 0., 1., 1.])];0.0021815054110370605;[array([0., 0., 1., 0.])];0.5;[array([0., 0., 1., 0.]), array([0., 0., 1., 1.]), array([1., 0., 1., 1.])];1.0;[array([0., 0., 1., 0.]), array([0., 0., 1., 1.]), array([1., 0., 1., 1.])];1.0;[array([0., 0., 1., 0.]), array([1., 0., 1., 0.]), array([1., 0., 1., 1.])];50.0
"[[0. 1. 0. 1. 0. 0. 1. 0. 1. 0.]
 [1. 0. 1. 0. 1. 1. 0. 1. 0. 1.]]";[array([1., 1., 0., 0.])];0.0030108564492027576;[array([1., 1., 0., 0.])];0.5;[array([0., 1., 0., 0.]), array([1., 1., 0., 0.]), array([1., 1., 0., 1.])];1.0;[array([0., 1., 0., 0.]), array([1., 1., 0., 0.]), array([1., 1., 0., 1.])];1.0;[array([0., 1., 0., 1.])];50.0
"[[1. 0. 1. 0. 0. 1. 0. 1. 1. 1.]
 [0. 1. 0. 1. 1. 0. 1. 0. 0. 0.]]";[array([1., 0., 1., 1.])];0.0021815054110370597;[array([1., 0., 1., 0.])];0.625;[array([0., 0., 1., 0.]), array([0., 0., 1., 1.]), array([1., 0., 1., 1.])];1.0;[array([0., 0., 1., 0.]), array([0., 0., 1., 1.]), array([1., 0., 1., 1.])];1.0;[array([0., 0., 1., 0.]), array([1., 0., 1., 0.]), array([1., 0., 1., 1.])];50.0
"[[0. 1. 1. 1. 0. 1. 0. 1. 0. 1.]
 [1. 0. 0. 0. 1. 0. 1. 0. 1. 0.]]";[array([0., 0., 1., 0.]), array([1., 0., 1., 1.])];0.0021815054110370605;[array([0., 0., 1., 0.]), array([0., 0., 1., 1.]), array([1., 0., 1., 0.]), array([1., 0., 1., 1.])];0.75;[array([0., 0., 1., 0.]), array([0., 0., 1., 1.]), array([1., 0., 1., 1.])];1.0;[array([0., 0., 1., 0.]), array([0., 0., 1., 1.]), array([1., 0., 1., 1.])];1.0;[array([0., 0., 1., 0.]), array([1., 0., 1., 0.]), array([1., 0., 1., 1.])];50.0
"[[1. 0. 0. 1. 1. 1. 0. 0. 1. 0.]
 [0. 1. 1. 0. 0. 0. 1. 1. 0. 1.]]";[array([0., 0., 1., 1.])];0.0030108564492027593;[array([0., 1., 1., 1.])];0.25;[array([0., 0., 0., 1.]), array([0., 0., 1., 1.]), array([0., 1., 1., 1.])];1.0;[array([0., 0., 0., 1.]), array([0., 0., 1., 1.]), array([0., 1., 1., 1.])];1.0;[array([0., 1., 0., 1.])];50.0
"[[0. 0. 1. 0. 1. 0. 1. 0. 1. 0.]
 [1. 1. 0. 1. 0. 1. 0. 1. 0. 1.]]";[array([1., 1., 0., 0.])];0.0017306859924016132;[array([1., 1., 0., 1.])];0.25;[array([1., 1., 0., 0.])];1.0;[array([1., 1., 0., 0.])];1.0;[array([0., 1., 0., 0.]), array([0., 1., 0., 1.]), array([1., 1., 0., 0.]), array([1., 1., 0., 1.])];50.0
"[[0. 0. 0. 0. 1. 0. 0. 0. 0. 1.]
 [1. 1. 1. 1. 0. 1. 1. 1. 1. 0.]]";[array([0., 0., 1., 1.])];0.0017306859924016101;[array([0., 0., 1., 1.])];0.5;[array([0., 0., 1., 1.])];1.0;[array([0., 0., 1., 1.])];1.0;[array([0., 0., 0., 1.]), array([0., 0., 1., 1.]), array([0., 1., 0., 1.]), array([0., 1., 1., 1.])];50.0
"[[0. 1. 1. 0. 1. 1. 1. 1. 1. 1.]
 [1. 0. 0. 1. 0. 0. 0. 0. 0. 0.]]";[array([1., 1., 1., 0.])];0.0021815054110370592;[array([1., 0., 0., 0.]), array([1., 1., 0., 0.]), array([1., 1., 1., 0.])];0.5;[array([1., 0., 0., 0.]), array([1., 1., 0., 0.]), array([1., 1., 1., 0.])];1.0;[array([1., 0., 0., 0.]), array([1., 1., 0., 0.]), array([1., 1., 1., 0.])];1.0;[array([1., 0., 0., 0.]), array([1., 0., 1., 0.]), array([1., 1., 1., 0.])];50.0
"[[1. 1. 0. 0. 1. 0. 1. 0. 0. 1.]
 [0. 0. 1. 1. 0. 1. 0. 1. 1. 0.]]";[array([1., 1., 0., 0.])];0.0017306859924016101;[array([1., 1., 0., 0.])];0.5;[array([1., 1., 0., 0.])];1.0;[array([1., 1., 0., 0.])];1.0;[array([0., 1., 0., 0.]), array([0., 1., 0., 1.]), array([1., 1., 0., 0.]), array([1., 1., 0., 1.])];50.0
"[[0. 0. 0. 0. 0. 0. 1. 0. 1. 0.]
 [1. 1. 1. 1. 1. 1. 0. 1. 0. 1.]]";[array([1., 1., 0., 0.])];0.0017306859924016084;[array([1., 1., 0., 0.])];0.625;[array([1., 1., 0., 0.])];1.0;[array([1., 1., 0., 0.])];1.0;[array([0., 1., 0., 0.]), array([0., 1., 0., 1.]), array([1., 1., 0., 0.]), array([1., 1., 0., 1.])];50.0
"[[1. 0. 0. 1. 1. 1. 0. 1. 0. 1.]
 [0. 1. 1. 0. 0. 0. 1. 0. 1. 0.]]";[array([1., 0., 1., 1.])];0.0021815054110370592;[array([0., 0., 1., 0.]), array([1., 0., 1., 1.])];0.625;[array([0., 0., 1., 0.]), array([0., 0., 1., 1.]), array([1., 0., 1., 1.])];1.0;[array([0., 0., 1., 0.]), array([0., 0., 1., 1.]), array([1., 0., 1., 1.])];1.0;[array([0., 0., 1., 0.]), array([1., 0., 1., 0.]), array([1., 0., 1., 1.])];50.0
"[[0. 1. 1. 1. 0. 0. 0. 1. 1. 0.]
 [1. 0. 0. 0. 1. 1. 1. 0. 0. 1.]]";[array([1., 0., 1., 1.])];0.0021815054110370597;[array([1., 0., 1., 1.])];0.5;[array([0., 0., 1., 0.]), array([0., 0., 1., 1.]), array([1., 0., 1., 1.])];1.0;[array([0., 0., 1., 0.]), array([0., 0., 1., 1.]), array([1., 0., 1., 1.])];1.0;[array([0., 0., 1., 0.]), array([1., 0., 1., 0.]), array([1., 0., 1., 1.])];50.0
"[[0. 1. 1. 0. 1. 0. 1. 1. 0. 0.]
 [1. 0. 0. 1. 0. 1. 0. 0. 1. 1.]]";[array([1., 1., 1., 0.])];0.00218150541103706;[array([1., 1., 0., 0.])];0.625;[array([1., 0., 0., 0.]), array([1., 1., 0., 0.]), array([1., 1., 1., 0.])];1.0;[array([1., 0., 0., 0.]), array([1., 1., 0., 0.]), array([1., 1., 1., 0.])];1.0;[array([1., 0., 0., 0.]), array([1., 0., 1., 0.]), array([1., 1., 1., 0.])];50.0
"[[1. 1. 0. 1. 0. 0. 0. 0. 0. 0.]
 [0. 0. 1. 0. 1. 1. 1. 1. 1. 1.]]";[array([0., 0., 1., 1.])];0.0017306859924016106;[array([0., 0., 1., 1.])];0.25;[array([0., 0., 1., 1.])];1.0;[array([0., 0., 1., 1.])];1.0;[array([0., 0., 0., 1.]), array([0., 0., 1., 1.]), array([0., 1., 0., 1.]), array([0., 1., 1., 1.])];50.0
"[[1. 0. 0. 1. 0. 1. 0. 1. 0. 0.]
 [0. 1. 1. 0. 1. 0. 1. 0. 1. 1.]]";[array([1., 0., 1., 1.])];0.0021815054110370597;[array([0., 0., 1., 0.]), array([0., 0., 1., 1.]), array([1., 0., 1., 1.])];0.75;[array([0., 0., 1., 0.]), array([0., 0., 1., 1.]), array([1., 0., 1., 1.])];1.0;[array([0., 0., 1., 0.]), array([0., 0., 1., 1.]), array([1., 0., 1., 1.])];1.0;[array([0., 0., 1., 0.]), array([1., 0., 1., 0.]), array([1., 0., 1., 1.])];50.0
"[[0. 0. 0. 1. 0. 0. 1. 1. 0. 1.]
 [1. 1. 1. 0. 1. 1. 0. 0. 1. 0.]]";[array([1., 1., 0., 0.])];0.00173068599240161;[array([1., 0., 1., 0.])];0.625;[array([1., 0., 0., 0.]), array([1., 1., 0., 0.]), array([1., 1., 1., 0.])];1.0;[array([1., 1., 0., 0.])];1.0;[array([1., 0., 0., 0.]), array([1., 0., 1., 0.]), array([1., 1., 0., 0.]), array([1., 1., 1., 0.])];50.0
"[[0. 1. 0. 0. 1. 0. 0. 0. 0. 0.]
 [1. 0. 1. 1. 0. 1. 1. 1. 1. 1.]]";[array([0., 0., 1., 1.])];0.003010856449202758;[array([0., 0., 1., 1.]), array([0., 1., 1., 1.])];0.25;[array([0., 0., 0., 1.]), array([0., 0., 1., 1.]), array([0., 1., 1., 1.])];1.0;[array([0., 0., 0., 1.]), array([0., 0., 1., 1.]), array([0., 1., 1., 1.])];1.0;[array([0., 1., 0., 1.])];50.0
"[[0. 1. 0. 1. 1. 0. 1. 0. 0. 1.]
 [1. 0. 1. 0. 0. 1. 0. 1. 1. 0.]]";[array([1., 1., 0., 0.])];0.003010856449202759;[array([0., 1., 0., 0.])];0.25;[array([0., 1., 0., 0.]), array([1., 1., 0., 0.]), array([1., 1., 0., 1.])];1.0;[array([0., 1., 0., 0.]), array([1., 1., 0., 0.]), array([1., 1., 0., 1.])];1.0;[array([0., 1., 0., 1.])];50.0
"[[0. 1. 1. 1. 1. 0. 1. 1. 0. 0.]
 [1. 0. 0. 0. 0. 1. 0. 0. 1. 1.]]";[array([1., 1., 1., 0.])];0.0021815054110370597;[array([1., 1., 0., 0.]), array([1., 1., 1., 0.])];0.625;[array([1., 0., 0., 0.]), array([1., 1., 0., 0.]), array([1., 1., 1., 0.])];1.0;[array([1., 0., 0., 0.]), array([1., 1., 0., 0.]), array([1., 1., 1., 0.])];1.0;[array([1., 0., 0., 0.]), array([1., 0., 1., 0.]), array([1., 1., 1., 0.])];50.0
"[[0. 1. 1. 0. 0. 1. 0. 0. 0. 0.]
 [1. 0. 0. 1. 1. 0. 1. 1. 1. 1.]]";[array([0., 0., 1., 1.])];0.003010856449202759;[array([0., 0., 0., 1.])];0.625;[array([0., 0., 0., 1.]), array([0., 0., 1., 1.]), array([0., 1., 1., 1.])];1.0;[array([0., 0., 0., 1.]), array([0., 0., 1., 1.]), array([0., 1., 1., 1.])];1.0;[array([0., 1., 0., 1.])];50.0
"[[0. 0. 1. 0. 1. 1. 0. 0. 1. 1.]
 [1. 1. 0. 1. 0. 0. 1. 1. 0. 0.]]";[array([0., 0., 1., 1.])];0.0017306859924016136;[array([0., 0., 0., 1.])];0.5;[array([0., 0., 1., 1.])];1.0;[array([0., 0., 1., 1.])];1.0;[array([0., 0., 0., 1.]), array([0., 0., 1., 1.]), array([0., 1., 0., 1.]), array([0., 1., 1., 1.])];50.0
"[[0. 0. 0. 1. 0. 1. 0. 0. 0. 0.]
 [1. 1. 1. 0. 1. 0. 1. 1. 1. 1.]]";[array([0., 0., 1., 1.])];0.0017306859924016136;[array([0., 0., 0., 1.]), array([0., 1., 0., 1.]), array([0., 1., 1., 1.])];0.0;[array([0., 0., 1., 1.])];1.0;[array([0., 0., 1., 1.])];1.0;[array([0., 0., 0., 1.]), array([0., 0., 1., 1.]), array([0., 1., 0., 1.]), array([0., 1., 1., 1.])];50.0
"[[0. 1. 0. 0. 0. 1. 1. 1. 1. 0.]
 [1. 0. 1. 1. 1. 0. 0. 0. 0. 1.]]";[array([1., 1., 1., 0.])];0.0021815054110370597;[array([1., 1., 1., 0.])];0.625;[array([1., 0., 0., 0.]), array([1., 1., 0., 0.]), array([1., 1., 1., 0.])];1.0;[array([1., 0., 0., 0.]), array([1., 1., 0., 0.]), array([1., 1., 1., 0.])];1.0;[array([1., 0., 0., 0.]), array([1., 0., 1., 0.]), array([1., 1., 1., 0.])];50.0
"[[1. 1. 1. 0. 1. 1. 1. 1. 0. 1.]
 [0. 0. 0. 1. 0. 0. 0. 0. 1. 0.]]";[array([1., 1., 0., 0.])];0.0017306859924016127;[array([1., 0., 0., 0.]), array([1., 0., 1., 0.])];0.625;[array([1., 0., 0., 0.]), array([1., 1., 0., 0.]), array([1., 1., 1., 0.])];1.0;[array([1., 1., 0., 0.])];1.0;[array([1., 0., 0., 0.]), array([1., 0., 1., 0.]), array([1., 1., 0., 0.]), array([1., 1., 1., 0.])];50.0
"[[0. 0. 0. 0. 1. 0. 1. 1. 1. 1.]
 [1. 1. 1. 1. 0. 1. 0. 0. 0. 0.]]";[array([1., 1., 0., 0.])];0.0017306859924016119;[array([1., 1., 0., 0.])];0.25;[array([1., 0., 0., 0.]), array([1., 1., 0., 0.]), array([1., 1., 1., 0.])];1.0;[array([1., 1., 0., 0.])];1.0;[array([1., 0., 0., 0.]), array([1., 0., 1., 0.]), array([1., 1., 0., 0.]), array([1., 1., 1., 0.])];50.0
"[[0. 1. 0. 0. 0. 1. 0. 1. 1. 1.]
 [1. 0. 1. 1. 1. 0. 1. 0. 0. 0.]]";[array([0., 0., 1., 0.])];0.0021815054110370597;[array([0., 0., 1., 1.])];0.375;[array([0., 0., 1., 0.]), array([0., 0., 1., 1.]), array([1., 0., 1., 1.])];1.0;[array([0., 0., 1., 0.]), array([0., 0., 1., 1.]), array([1., 0., 1., 1.])];1.0;[array([0., 0., 1., 0.]), array([1., 0., 1., 0.]), array([1., 0., 1., 1.])];50.0
"[[1. 0. 0. 1. 1. 1. 0. 1. 0. 0.]
 [0. 1. 1. 0. 0. 0. 1. 0. 1. 1.]]";[array([1., 0., 1., 1.])];0.002181505411037059;[array([0., 0., 1., 0.]), array([0., 0., 1., 1.]), array([1., 0., 1., 1.])];0.625;[array([0., 0., 1., 0.]), array([0., 0., 1., 1.]), array([1., 0., 1., 1.])];1.0;[array([0., 0., 1., 0.]), array([0., 0., 1., 1.]), array([1., 0., 1., 1.])];1.0;[array([0., 0., 1., 0.]), array([1., 0., 1., 0.]), array([1., 0., 1., 1.])];50.0
"[[1. 0. 1. 0. 0. 1. 0. 1. 0. 1.]
 [0. 1. 0. 1. 1. 0. 1. 0. 1. 0.]]";[array([1., 0., 1., 1.])];0.0021815054110370597;[array([1., 0., 1., 1.])];0.0;[array([0., 0., 1., 0.]), array([0., 0., 1., 1.]), array([1., 0., 1., 1.])];1.0;[array([0., 0., 1., 0.]), array([0., 0., 1., 1.]), array([1., 0., 1., 1.])];1.0;[array([0., 0., 1., 0.]), array([1., 0., 1., 0.]), array([1., 0., 1., 1.])];50.0
"[[0. 0. 0. 0. 1. 0. 1. 1. 0. 1.]
 [1. 1. 1. 1. 0. 1. 0. 0. 1. 0.]]";[array([1., 1., 0., 0.])];0.0017306859924016112;[array([1., 1., 0., 0.]), array([1., 1., 1., 0.])];0.5;[array([1., 0., 0., 0.]), array([1., 1., 0., 0.]), array([1., 1., 1., 0.])];1.0;[array([1., 1., 0., 0.])];1.0;[array([1., 0., 0., 0.]), array([1., 0., 1., 0.]), array([1., 1., 0., 0.]), array([1., 1., 1., 0.])];50.0
"[[0. 1. 1. 0. 0. 0. 1. 1. 1. 1.]
 [1. 0. 0. 1. 1. 1. 0. 0. 0. 0.]]";[array([1., 1., 1., 0.])];0.0021815054110370592;[array([1., 1., 0., 0.])];0.375;[array([1., 0., 0., 0.]), array([1., 1., 0., 0.]), array([1., 1., 1., 0.])];1.0;[array([1., 0., 0., 0.]), array([1., 1., 0., 0.]), array([1., 1., 1., 0.])];1.0;[array([1., 0., 0., 0.]), array([1., 0., 1., 0.]), array([1., 1., 1., 0.])];50.0
"[[1. 0. 1. 1. 0. 0. 0. 0. 0. 0.]
 [0. 1. 0. 0. 1. 1. 1. 1. 1. 1.]]";[array([0., 0., 1., 1.])];0.003010856449202759;[array([0., 0., 1., 1.]), array([0., 1., 1., 1.])];0.25;[array([0., 0., 0., 1.]), array([0., 0., 1., 1.]), array([0., 1., 1., 1.])];1.0;[array([0., 0., 0., 1.]), array([0., 0., 1., 1.]), array([0., 1., 1., 1.])];1.0;[array([0., 1., 0., 1.])];50.0
"[[1. 0. 1. 0. 1. 1. 1. 0. 0. 1.]
 [0. 1. 0. 1. 0. 0. 0. 1. 1. 0.]]";[array([1., 1., 0., 0.])];0.0030108564492027584;[array([0., 1., 0., 0.])];0.25;[array([0., 1., 0., 0.]), array([1., 1., 0., 0.]), array([1., 1., 0., 1.])];1.0;[array([0., 1., 0., 0.]), array([1., 1., 0., 0.]), array([1., 1., 0., 1.])];1.0;[array([0., 1., 0., 1.])];50.0
"[[1. 0. 0. 0. 0. 0. 1. 1. 0. 1.]
 [0. 1. 1. 1. 1. 1. 0. 0. 1. 0.]]";[array([1., 1., 1., 0.])];0.0021815054110370592;[array([1., 0., 0., 0.])];0.625;[array([1., 0., 0., 0.]), array([1., 1., 0., 0.]), array([1., 1., 1., 0.])];1.0;[array([1., 0., 0., 0.]), array([1., 1., 0., 0.]), array([1., 1., 1., 0.])];1.0;[array([1., 0., 0., 0.]), array([1., 0., 1., 0.]), array([1., 1., 1., 0.])];50.0
"[[0. 0. 1. 0. 0. 1. 1. 0. 0. 0.]
 [1. 1. 0. 1. 1. 0. 0. 1. 1. 1.]]";[array([1., 1., 0., 0.])];0.0017306859924016106;[array([1., 1., 0., 0.])];0.625;[array([1., 1., 0., 0.])];1.0;[array([1., 1., 0., 0.])];1.0;[array([0., 1., 0., 0.]), array([0., 1., 0., 1.]), array([1., 1., 0., 0.]), array([1., 1., 0., 1.])];50.0
"[[0. 1. 0. 0. 1. 0. 1. 0. 0. 0.]
 [1. 0. 1. 1. 0. 1. 0. 1. 1. 1.]]";[array([1., 1., 0., 0.])];0.0030108564492027584;[array([0., 1., 0., 1.]), array([1., 1., 0., 1.])];0.75;[array([0., 1., 0., 0.]), array([1., 1., 0., 0.]), array([1., 1., 0., 1.])];1.0;[array([0., 1., 0., 0.]), array([1., 1., 0., 0.]), array([1., 1., 0., 1.])];1.0;[array([0., 1., 0., 1.])];50.0
"[[0. 1. 0. 1. 0. 0. 1. 1. 0. 1.]
 [1. 0. 1. 0. 1. 1. 0. 0. 1. 0.]]";[array([1., 1., 1., 0.])];0.0021815054110370597;[array([1., 1., 1., 0.])];0.25;[array([1., 0., 0., 0.]), array([1., 1., 0., 0.]), array([1., 1., 1., 0.])];1.0;[array([1., 0., 0., 0.]), array([1., 1., 0., 0.]), array([1., 1., 1., 0.])];1.0;[array([1., 0., 0., 0.]), array([1., 0., 1., 0.]), array([1., 1., 1., 0.])];50.0
"[[1. 0. 0. 0. 0. 0. 0. 0. 0. 1.]
 [0. 1. 1. 1. 1. 1. 1. 1. 1. 0.]]";[array([0., 0., 1., 1.])];0.0030108564492027584;[array([0., 1., 1., 1.])];0.5;[array([0., 0., 0., 1.]), array([0., 0., 1., 1.]), array([0., 1., 1., 1.])];1.0;[array([0., 0., 0., 1.]), array([0., 0., 1., 1.]), array([0., 1., 1., 1.])];1.0;[array([0., 1., 0., 1.])];50.0
"[[0. 1. 1. 1. 1. 0. 0. 0. 0. 0.]
 [1. 0. 0. 0. 0. 1. 1. 1. 1. 1.]]";[array([0., 0., 1., 1.])];0.0030108564492027593;[array([0., 0., 0., 1.])];0.25;[array([0., 0., 0., 1.]), array([0., 0., 1., 1.]), array([0., 1., 1., 1.])];1.0;[array([0., 0., 0., 1.]), array([0., 0., 1., 1.]), array([0., 1., 1., 1.])];1.0;[array([0., 1., 0., 1.])];50.0
"[[1. 0. 0. 1. 0. 0. 1. 1. 1. 0.]
 [0. 1. 1. 0. 1. 1. 0. 0. 0. 1.]]";[array([1., 1., 1., 0.])];0.0021815054110370597;[array([1., 1., 1., 0.])];0.625;[array([1., 0., 0., 0.]), array([1., 1., 0., 0.]), array([1., 1., 1., 0.])];1.0;[array([1., 0., 0., 0.]), array([1., 1., 0., 0.]), array([1., 1., 1., 0.])];1.0;[array([1., 0., 0., 0.]), array([1., 0., 1., 0.]), array([1., 1., 1., 0.])];50.0
"[[1. 0. 0. 1. 1. 1. 1. 1. 1. 1.]
 [0. 1. 1. 0. 0. 0. 0. 0. 0. 0.]]";[array([1., 1., 1., 0.])];0.0021815054110370592;[array([1., 1., 0., 0.])];0.375;[array([1., 0., 0., 0.]), array([1., 1., 0., 0.]), array([1., 1., 1., 0.])];1.0;[array([1., 0., 0., 0.]), array([1., 1., 0., 0.]), array([1., 1., 1., 0.])];1.0;[array([1., 0., 0., 0.]), array([1., 0., 1., 0.]), array([1., 1., 1., 0.])];50.0
"[[1. 0. 0. 1. 1. 0. 0. 0. 0. 1.]
 [0. 1. 1. 0. 0. 1. 1. 1. 1. 0.]]";[array([0., 0., 1., 1.])];0.003010856449202759;[array([0., 1., 1., 1.])];0.375;[array([0., 0., 0., 1.]), array([0., 0., 1., 1.]), array([0., 1., 1., 1.])];1.0;[array([0., 0., 0., 1.]), array([0., 0., 1., 1.]), array([0., 1., 1., 1.])];1.0;[array([0., 1., 0., 1.])];50.0
"[[0. 0. 1. 1. 0. 0. 1. 1. 1. 0.]
 [1. 1. 0. 0. 1. 1. 0. 0. 0. 1.]]";[array([1., 1., 0., 0.])];0.0017306859924016106;[array([1., 0., 0., 0.])];0.375;[array([1., 0., 0., 0.]), array([1., 1., 0., 0.]), array([1., 1., 1., 0.])];1.0;[array([1., 1., 0., 0.])];1.0;[array([1., 0., 0., 0.]), array([1., 0., 1., 0.]), array([1., 1., 0., 0.]), array([1., 1., 1., 0.])];50.0
"[[1. 0. 0. 0. 1. 0. 0. 0. 0. 0.]
 [0. 1. 1. 1. 0. 1. 1. 1. 1. 1.]]";[array([0., 0., 1., 1.])];0.003010856449202759;[array([0., 0., 0., 1.])];0.25;[array([0., 0., 0., 1.]), array([0., 0., 1., 1.]), array([0., 1., 1., 1.])];1.0;[array([0., 0., 0., 1.]), array([0., 0., 1., 1.]), array([0., 1., 1., 1.])];1.0;[array([0., 1., 0., 1.])];50.0
"[[1. 1. 1. 0. 0. 0. 1. 1. 1. 0.]
 [0. 0. 0. 1. 1. 1. 0. 0. 0. 1.]]";[array([1., 1., 0., 0.])];0.0017306859924016112;[array([1., 0., 0., 0.])];0.25;[array([1., 0., 0., 0.]), array([1., 1., 0., 0.]), array([1., 1., 1., 0.])];1.0;[array([1., 1., 0., 0.])];1.0;[array([1., 0., 0., 0.]), array([1., 0., 1., 0.]), array([1., 1., 0., 0.]), array([1., 1., 1., 0.])];50.0
"[[0. 0. 0. 1. 1. 1. 0. 0. 1. 0.]
 [1. 1. 1. 0. 0. 0. 1. 1. 0. 1.]]";[array([0., 0., 1., 1.])];0.0017306859924016123;[array([0., 0., 1., 1.])];0.5;[array([0., 0., 1., 1.])];1.0;[array([0., 0., 1., 1.])];1.0;[array([0., 0., 0., 1.]), array([0., 0., 1., 1.]), array([0., 1., 0., 1.]), array([0., 1., 1., 1.])];50.0
"[[1. 1. 0. 0. 1. 1. 1. 1. 1. 0.]
 [0. 0. 1. 1. 0. 0. 0. 0. 0. 1.]]";[array([1., 1., 0., 0.])];0.0017306859924016101;[array([1., 0., 0., 0.]), array([1., 0., 1., 0.]), array([1., 1., 0., 0.])];0.625;[array([1., 0., 0., 0.]), array([1., 1., 0., 0.]), array([1., 1., 1., 0.])];1.0;[array([1., 1., 0., 0.])];1.0;[array([1., 0., 0., 0.]), array([1., 0., 1., 0.]), array([1., 1., 0., 0.]), array([1., 1., 1., 0.])];50.0
"[[0. 0. 1. 1. 0. 0. 1. 0. 0. 1.]
 [1. 1. 0. 0. 1. 1. 0. 1. 1. 0.]]";[array([1., 1., 0., 0.])];0.0017306859924016114;[array([0., 1., 0., 0.]), array([0., 1., 0., 1.])];0.875;[array([1., 1., 0., 0.])];1.0;[array([1., 1., 0., 0.])];1.0;[array([0., 1., 0., 0.]), array([0., 1., 0., 1.]), array([1., 1., 0., 0.]), array([1., 1., 0., 1.])];50.0
"[[1. 1. 1. 1. 1. 1. 1. 1. 1. 1.]
 [0. 0. 0. 0. 0. 0. 0. 0. 0. 0.]]";[array([1., 1., 0., 0.])];0.0017306859924016101;[array([1., 0., 0., 0.])];0.5;[array([1., 0., 0., 0.]), array([1., 1., 0., 0.]), array([1., 1., 1., 0.])];1.0;[array([1., 1., 0., 0.])];1.0;[array([1., 0., 0., 0.]), array([1., 0., 1., 0.]), array([1., 1., 0., 0.]), array([1., 1., 1., 0.])];50.0
"[[1. 0. 0. 1. 1. 1. 1. 1. 0. 0.]
 [0. 1. 1. 0. 0. 0. 0. 0. 1. 1.]]";[array([1., 1., 1., 0.])];0.002181505411037059;[array([1., 0., 1., 0.])];0.75;[array([1., 0., 0., 0.]), array([1., 1., 0., 0.]), array([1., 1., 1., 0.])];1.0;[array([1., 0., 0., 0.]), array([1., 1., 0., 0.]), array([1., 1., 1., 0.])];1.0;[array([1., 0., 0., 0.]), array([1., 0., 1., 0.]), array([1., 1., 1., 0.])];50.0
"[[1. 1. 1. 1. 1. 1. 0. 1. 1. 1.]
 [0. 0. 0. 0. 0. 0. 1. 0. 0. 0.]]";[array([0., 0., 1., 1.])];0.001730685992401613;[array([0., 0., 1., 0.])];0.375;[array([0., 0., 1., 0.]), array([0., 0., 1., 1.]), array([1., 0., 1., 1.])];1.0;[array([0., 0., 1., 1.])];1.0;[array([0., 0., 1., 0.]), array([0., 0., 1., 1.]), array([1., 0., 1., 0.]), array([1., 0., 1., 1.])];50.0
"[[0. 0. 1. 0. 1. 0. 0. 1. 1. 1.]
 [1. 1. 0. 1. 0. 1. 1. 0. 0. 0.]]";[array([0., 0., 1., 1.])];0.001730685992401609;[array([0., 0., 1., 0.])];0.5;[array([0., 0., 1., 0.]), array([0., 0., 1., 1.]), array([1., 0., 1., 1.])];1.0;[array([0., 0., 1., 1.])];1.0;[array([0., 0., 1., 0.]), array([0., 0., 1., 1.]), array([1., 0., 1., 0.]), array([1., 0., 1., 1.])];50.0
"[[0. 1. 0. 0. 1. 1. 1. 1. 0. 1.]
 [1. 0. 1. 1. 0. 0. 0. 0. 1. 0.]]";[array([1., 0., 0., 0.]), array([1., 1., 1., 0.])];0.0021815054110370605;[array([1., 0., 0., 0.])];0.875;[array([1., 0., 0., 0.]), array([1., 1., 0., 0.]), array([1., 1., 1., 0.])];1.0;[array([1., 0., 0., 0.]), array([1., 1., 0., 0.]), array([1., 1., 1., 0.])];1.0;[array([1., 0., 0., 0.]), array([1., 0., 1., 0.]), array([1., 1., 1., 0.])];50.0
"[[0. 0. 0. 1. 1. 0. 0. 1. 1. 1.]
 [1. 1. 1. 0. 0. 1. 1. 0. 0. 0.]]";[array([0., 0., 1., 1.])];0.0017306859924016093;[array([0., 0., 1., 0.]), array([0., 0., 1., 1.])];0.625;[array([0., 0., 1., 0.]), array([0., 0., 1., 1.]), array([1., 0., 1., 1.])];1.0;[array([0., 0., 1., 1.])];1.0;[array([0., 0., 1., 0.]), array([0., 0., 1., 1.]), array([1., 0., 1., 0.]), array([1., 0., 1., 1.])];50.0
"[[0. 0. 1. 0. 0. 0. 1. 0. 1. 0.]
 [1. 1. 0. 1. 1. 1. 0. 1. 0. 1.]]";[array([1., 1., 0., 0.])];0.0017306859924016101;[array([1., 1., 0., 1.])];0.25;[array([1., 1., 0., 0.])];1.0;[array([1., 1., 0., 0.])];1.0;[array([0., 1., 0., 0.]), array([0., 1., 0., 1.]), array([1., 1., 0., 0.]), array([1., 1., 0., 1.])];50.0
"[[1. 0. 0. 1. 1. 1. 0. 1. 1. 0.]
 [0. 1. 1. 0. 0. 0. 1. 0. 0. 1.]]";[array([1., 0., 1., 1.])];0.0021815054110370597;[array([1., 0., 1., 1.])];0.0;[array([0., 0., 1., 0.]), array([0., 0., 1., 1.]), array([1., 0., 1., 1.])];1.0;[array([0., 0., 1., 0.]), array([0., 0., 1., 1.]), array([1., 0., 1., 1.])];1.0;[array([0., 0., 1., 0.]), array([1., 0., 1., 0.]), array([1., 0., 1., 1.])];50.0
"[[1. 0. 1. 1. 0. 1. 0. 1. 1. 0.]
 [0. 1. 0. 0. 1. 0. 1. 0. 0. 1.]]";[array([1., 0., 1., 1.])];0.0021815054110370592;[array([1., 0., 1., 1.])];0.0;[array([0., 0., 1., 0.]), array([0., 0., 1., 1.]), array([1., 0., 1., 1.])];1.0;[array([0., 0., 1., 0.]), array([0., 0., 1., 1.]), array([1., 0., 1., 1.])];1.0;[array([0., 0., 1., 0.]), array([1., 0., 1., 0.]), array([1., 0., 1., 1.])];50.0
"[[0. 1. 0. 1. 1. 0. 0. 1. 1. 0.]
 [1. 0. 1. 0. 0. 1. 1. 0. 0. 1.]]";[array([1., 0., 1., 1.])];0.002181505411037059;[array([0., 0., 1., 1.])];0.25;[array([0., 0., 1., 0.]), array([0., 0., 1., 1.]), array([1., 0., 1., 1.])];1.0;[array([0., 0., 1., 0.]), array([0., 0., 1., 1.]), array([1., 0., 1., 1.])];1.0;[array([0., 0., 1., 0.]), array([1., 0., 1., 0.]), array([1., 0., 1., 1.])];50.0
"[[0. 1. 0. 0. 1. 0. 0. 1. 0. 0.]
 [1. 0. 1. 1. 0. 1. 1. 0. 1. 1.]]";[array([0., 0., 1., 0.]), array([1., 0., 1., 1.])];0.0021815054110370605;[array([1., 0., 1., 1.])];0.625;[array([0., 0., 1., 0.]), array([0., 0., 1., 1.]), array([1., 0., 1., 1.])];1.0;[array([0., 0., 1., 0.]), array([0., 0., 1., 1.]), array([1., 0., 1., 1.])];1.0;[array([0., 0., 1., 0.]), array([1., 0., 1., 0.]), array([1., 0., 1., 1.])];50.0
"[[0. 1. 1. 1. 0. 0. 0. 1. 1. 1.]
 [1. 0. 0. 0. 1. 1. 1. 0. 0. 0.]]";[array([1., 0., 1., 1.])];0.0021815054110370592;[array([0., 0., 1., 1.])];0.375;[array([0., 0., 1., 0.]), array([0., 0., 1., 1.]), array([1., 0., 1., 1.])];1.0;[array([0., 0., 1., 0.]), array([0., 0., 1., 1.]), array([1., 0., 1., 1.])];1.0;[array([0., 0., 1., 0.]), array([1., 0., 1., 0.]), array([1., 0., 1., 1.])];50.0
"[[0. 0. 0. 1. 0. 0. 0. 1. 0. 0.]
 [1. 1. 1. 0. 1. 1. 1. 0. 1. 1.]]";[array([0., 0., 1., 1.])];0.0017306859924016097;[array([1., 0., 1., 0.])];0.625;[array([0., 0., 1., 0.]), array([0., 0., 1., 1.]), array([1., 0., 1., 1.])];1.0;[array([0., 0., 1., 1.])];1.0;[array([0., 0., 1., 0.]), array([0., 0., 1., 1.]), array([1., 0., 1., 0.]), array([1., 0., 1., 1.])];50.0
"[[1. 0. 0. 0. 1. 1. 1. 0. 0. 1.]
 [0. 1. 1. 1. 0. 0. 0. 1. 1. 0.]]";[array([1., 1., 0., 0.])];0.003010856449202759;[array([0., 1., 0., 1.])];0.625;[array([0., 1., 0., 0.]), array([1., 1., 0., 0.]), array([1., 1., 0., 1.])];1.0;[array([0., 1., 0., 0.]), array([1., 1., 0., 0.]), array([1., 1., 0., 1.])];1.0;[array([0., 1., 0., 1.])];50.0
"[[0. 0. 0. 0. 1. 1. 1. 1. 0. 0.]
 [1. 1. 1. 1. 0. 0. 0. 0. 1. 1.]]";[array([1., 1., 0., 0.])];0.001730685992401612;[array([1., 0., 0., 0.]), array([1., 1., 1., 0.])];0.75;[array([1., 0., 0., 0.]), array([1., 1., 0., 0.]), array([1., 1., 1., 0.])];1.0;[array([1., 1., 0., 0.])];1.0;[array([1., 0., 0., 0.]), array([1., 0., 1., 0.]), array([1., 1., 0., 0.]), array([1., 1., 1., 0.])];50.0
"[[1. 0. 1. 1. 0. 1. 0. 1. 1. 1.]
 [0. 1. 0. 0. 1. 0. 1. 0. 0. 0.]]";[array([1., 0., 1., 1.])];0.0021815054110370592;[array([0., 0., 1., 0.])];0.5;[array([0., 0., 1., 0.]), array([0., 0., 1., 1.]), array([1., 0., 1., 1.])];1.0;[array([0., 0., 1., 0.]), array([0., 0., 1., 1.]), array([1., 0., 1., 1.])];1.0;[array([0., 0., 1., 0.]), array([1., 0., 1., 0.]), array([1., 0., 1., 1.])];50.0
"[[0. 0. 0. 1. 1. 1. 0. 0. 0. 0.]
 [1. 1. 1. 0. 0. 0. 1. 1. 1. 1.]]";[array([0., 0., 1., 1.])];0.0017306859924016123;[array([0., 0., 1., 1.])];0.25;[array([0., 0., 1., 1.])];1.0;[array([0., 0., 1., 1.])];1.0;[array([0., 0., 0., 1.]), array([0., 0., 1., 1.]), array([0., 1., 0., 1.]), array([0., 1., 1., 1.])];50.0
"[[0. 1. 0. 1. 0. 0. 0. 0. 0. 0.]
 [1. 0. 1. 0. 1. 1. 1. 1. 1. 1.]]";[array([0., 0., 1., 1.])];0.0030108564492027584;[array([0., 1., 0., 1.]), array([0., 1., 1., 1.])];0.625;[array([0., 0., 0., 1.]), array([0., 0., 1., 1.]), array([0., 1., 1., 1.])];1.0;[array([0., 0., 0., 1.]), array([0., 0., 1., 1.]), array([0., 1., 1., 1.])];1.0;[array([0., 1., 0., 1.])];50.0
"[[0. 0. 0. 0. 1. 1. 1. 1. 1. 0.]
 [1. 1. 1. 1. 0. 0. 0. 0. 0. 1.]]";[array([1., 1., 0., 0.])];0.0017306859924016108;[array([1., 0., 0., 0.]), array([1., 1., 1., 0.])];0.5;[array([1., 0., 0., 0.]), array([1., 1., 0., 0.]), array([1., 1., 1., 0.])];1.0;[array([1., 1., 0., 0.])];1.0;[array([1., 0., 0., 0.]), array([1., 0., 1., 0.]), array([1., 1., 0., 0.]), array([1., 1., 1., 0.])];50.0
