funcs_primary;min_nSAD_func;min_nSAD;min_nHammingCP_func;min_nHammingCP;basin_closest_1_func;basin_closest_1;attractors_closest_1_func;attractors_closest_1;max_percent_full_match_func;max_percent_full_match
"[[ 0  1  0  0  0  0  0  0  0  0]
 [ 1  0  0  1  1  1  0  0  0  1]
 [ 1  0  0  1  0  1  0  1  0  1]
 [ 0  1  0  1  0  0  1  0  1  0]
 [-1  0  0  1 -1  1  1  1 -1 -1]
 [-1  0  0  1 -1  1  1  1 -1 -1]
 [-1  0  0  1 -1  1  1  1 -1 -1]
 [-1  0  1  1 -1  1  1  1 -1 -1]
 [-1 -1 -1 -1 -1 -1  0 -1 -1 -1]
 [-1 -1 -1 -1 -1 -1  0 -1 -1 -1]
 [-1 -1 -1 -1 -1 -1  0 -1 -1 -1]
 [-1 -1 -1 -1 -1 -1  1 -1 -1 -1]
 [-1 -1 -1 -1 -1 -1  0 -1 -1 -1]
 [-1 -1 -1 -1 -1 -1  0 -1 -1 -1]
 [-1 -1 -1 -1 -1 -1  0 -1 -1 -1]
 [-1 -1 -1 -1 -1 -1  1 -1 -1 -1]]";[array([ 0,  0,  1,  1,  0,  1,  1,  1, -1, -1, -1, -1, -1, -1, -1, -1])];0.0001569331718715743;[array([ 0,  0,  0,  0,  0,  1,  0,  0, -1, -1, -1, -1, -1, -1, -1, -1]), array([ 0,  0,  0,  0,  0,  1,  1,  0, -1, -1, -1, -1, -1, -1, -1, -1]), array([ 0,  0,  0,  1,  0,  1,  0,  0, -1, -1, -1, -1, -1, -1, -1, -1]), array([ 0,  0,  0,  1,  0,  1,  1,  0, -1, -1, -1, -1, -1, -1, -1, -1]), array([ 0,  0,  1,  0,  0,  1,  1,  0, -1, -1, -1, -1, -1, -1, -1, -1]), array([ 0,  0,  1,  0,  1,  1,  0,  1, -1, -1, -1, -1, -1, -1, -1, -1]), array([ 0,  0,  1,  0,  1,  1,  1,  1, -1, -1, -1, -1, -1, -1, -1, -1]), array([ 0,  0,  1,  1,  0,  1,  1,  0, -1, -1, -1, -1, -1, -1, -1, -1]), array([ 0,  0,  1,  1,  1,  1,  0,  1, -1, -1, -1, -1, -1, -1, -1, -1]), array([ 0,  1,  0,  0,  1,  1,  0,  1, -1, -1, -1, -1, -1, -1, -1, -1]), array([ 0,  1,  0,  0,  1,  1,  1,  1, -1, -1, -1, -1, -1, -1, -1, -1]), array([ 0,  1,  0,  1,  1,  1,  0,  1, -1, -1, -1, -1, -1, -1, -1, -1]), array([ 0,  1,  1,  0,  1,  1,  0,  0, -1, -1, -1, -1, -1, -1, -1, -1]), array([ 0,  1,  1,  0,  1,  1,  1,  0, -1, -1, -1, -1, -1, -1, -1, -1]), array([ 0,  1,  1,  1,  1,  1,  0,  0, -1, -1, -1, -1, -1, -1, -1, -1]), array([ 0,  1,  1,  1,  1,  1,  1,  0, -1, -1, -1, -1, -1, -1, -1, -1])];0.25;[array([ 0,  0,  0,  0,  0,  0,  1,  0, -1, -1, -1, -1, -1, -1, -1, -1]), array([ 0,  0,  0,  0,  0,  1,  1,  1, -1, -1, -1, -1, -1, -1, -1, -1]), array([ 0,  0,  0,  0,  1,  0,  0,  0, -1, -1, -1, -1, -1, -1, -1, -1]), array([ 0,  0,  0,  0,  1,  1,  0,  1, -1, -1, -1, -1, -1, -1, -1, -1]), array([ 0,  0,  0,  1,  0,  0,  0,  0, -1, -1, -1, -1, -1, -1, -1, -1]), array([ 0,  0,  0,  1,  0,  0,  1,  0, -1, -1, -1, -1, -1, -1, -1, -1]), array([ 0,  0,  0,  1,  0,  1,  0,  1, -1, -1, -1, -1, -1, -1, -1, -1]), array([ 0,  0,  0,  1,  0,  1,  1,  1, -1, -1, -1, -1, -1, -1, -1, -1]), array([ 0,  0,  0,  1,  1,  0,  0,  0, -1, -1, -1, -1, -1, -1, -1, -1]), array([ 0,  0,  0,  1,  1,  0,  1,  0, -1, -1, -1, -1, -1, -1, -1, -1]), array([ 0,  0,  0,  1,  1,  1,  0,  1, -1, -1, -1, -1, -1, -1, -1, -1]), array([ 0,  0,  0,  1,  1,  1,  1,  1, -1, -1, -1, -1, -1, -1, -1, -1]), array([ 0,  0,  1,  0,  0,  0,  0,  0, -1, -1, -1, -1, -1, -1, -1, -1]), array([ 0,  0,  1,  0,  0,  1,  0,  1, -1, -1, -1, -1, -1, -1, -1, -1]), array([ 0,  0,  1,  0,  0,  1,  1,  1, -1, -1, -1, -1, -1, -1, -1, -1]), array([ 0,  0,  1,  0,  1,  0,  0,  0, -1, -1, -1, -1, -1, -1, -1, -1]), array([ 0,  0,  1,  0,  1,  0,  1,  0, -1, -1, -1, -1, -1, -1, -1, -1]), array([ 0,  0,  1,  0,  1,  1,  0,  1, -1, -1, -1, -1, -1, -1, -1, -1]), array([ 0,  0,  1,  0,  1,  1,  1,  1, -1, -1, -1, -1, -1, -1, -1, -1]), array([ 0,  0,  1,  1,  0,  0,  1,  0, -1, -1, -1, -1, -1, -1, -1, -1]), array([ 0,  0,  1,  1,  0,  1,  0,  1, -1, -1, -1, -1, -1, -1, -1, -1]), array([ 0,  0,  1,  1,  0,  1,  1,  1, -1, -1, -1, -1, -1, -1, -1, -1]), array([ 0,  0,  1,  1,  1,  0,  0,  0, -1, -1, -1, -1, -1, -1, -1, -1]), array([ 0,  0,  1,  1,  1,  0,  1,  0, -1, -1, -1, -1, -1, -1, -1, -1]), array([ 0,  0,  1,  1,  1,  1,  0,  1, -1, -1, -1, -1, -1, -1, -1, -1]), array([ 0,  1,  0,  0,  0,  0,  0,  0, -1, -1, -1, -1, -1, -1, -1, -1]), array([ 0,  1,  0,  0,  0,  0,  1,  0, -1, -1, -1, -1, -1, -1, -1, -1]), array([ 0,  1,  0,  0,  0,  1,  0,  1, -1, -1, -1, -1, -1, -1, -1, -1]), array([ 0,  1,  0,  0,  0,  1,  1,  1, -1, -1, -1, -1, -1, -1, -1, -1]), array([ 0,  1,  0,  0,  1,  0,  0,  0, -1, -1, -1, -1, -1, -1, -1, -1]), array([ 0,  1,  0,  0,  1,  0,  1,  0, -1, -1, -1, -1, -1, -1, -1, -1]), array([ 0,  1,  0,  0,  1,  1,  0,  1, -1, -1, -1, -1, -1, -1, -1, -1]), array([ 0,  1,  0,  0,  1,  1,  1,  1, -1, -1, -1, -1, -1, -1, -1, -1]), array([ 0,  1,  0,  1,  0,  0,  1,  0, -1, -1, -1, -1, -1, -1, -1, -1]), array([ 0,  1,  0,  1,  0,  1,  1,  1, -1, -1, -1, -1, -1, -1, -1, -1]), array([ 0,  1,  0,  1,  1,  0,  0,  0, -1, -1, -1, -1, -1, -1, -1, -1]), array([ 0,  1,  0,  1,  1,  1,  0,  1, -1, -1, -1, -1, -1, -1, -1, -1]), array([ 0,  1,  1,  0,  0,  0,  0,  0, -1, -1, -1, -1, -1, -1, -1, -1]), array([ 0,  1,  1,  0,  0,  0,  1,  0, -1, -1, -1, -1, -1, -1, -1, -1]), array([ 0,  1,  1,  0,  0,  1,  0,  1, -1, -1, -1, -1, -1, -1, -1, -1]), array([ 0,  1,  1,  0,  0,  1,  1,  1, -1, -1, -1, -1, -1, -1, -1, -1]), array([ 0,  1,  1,  0,  1,  0,  0,  0, -1, -1, -1, -1, -1, -1, -1, -1]), array([ 0,  1,  1,  0,  1,  0,  1,  0, -1, -1, -1, -1, -1, -1, -1, -1]), array([ 0,  1,  1,  0,  1,  1,  0,  1, -1, -1, -1, -1, -1, -1, -1, -1]), array([ 0,  1,  1,  0,  1,  1,  1,  1, -1, -1, -1, -1, -1, -1, -1, -1]), array([ 0,  1,  1,  1,  0,  0,  0,  0, -1, -1, -1, -1, -1, -1, -1, -1]), array([ 0,  1,  1,  1,  0,  0,  1,  0, -1, -1, -1, -1, -1, -1, -1, -1]), array([ 0,  1,  1,  1,  0,  1,  0,  1, -1, -1, -1, -1, -1, -1, -1, -1]), array([ 0,  1,  1,  1,  1,  0,  0,  0, -1, -1, -1, -1, -1, -1, -1, -1]), array([ 0,  1,  1,  1,  1,  0,  1,  0, -1, -1, -1, -1, -1, -1, -1, -1]), array([ 0,  1,  1,  1,  1,  1,  0,  1, -1, -1, -1, -1, -1, -1, -1, -1]), array([ 0,  1,  1,  1,  1,  1,  1,  1, -1, -1, -1, -1, -1, -1, -1, -1])];1.0;[array([ 0,  0,  0,  0,  0,  1,  1,  1, -1, -1, -1, -1, -1, -1, -1, -1]), array([ 0,  0,  0,  0,  1,  1,  0,  1, -1, -1, -1, -1, -1, -1, -1, -1]), array([ 0,  0,  0,  1,  0,  1,  0,  1, -1, -1, -1, -1, -1, -1, -1, -1]), array([ 0,  0,  0,  1,  0,  1,  1,  1, -1, -1, -1, -1, -1, -1, -1, -1]), array([ 0,  0,  0,  1,  1,  1,  0,  1, -1, -1, -1, -1, -1, -1, -1, -1]), array([ 0,  0,  0,  1,  1,  1,  1,  1, -1, -1, -1, -1, -1, -1, -1, -1]), array([ 0,  0,  1,  0,  0,  1,  0,  1, -1, -1, -1, -1, -1, -1, -1, -1]), array([ 0,  0,  1,  0,  0,  1,  1,  1, -1, -1, -1, -1, -1, -1, -1, -1]), array([ 0,  0,  1,  0,  1,  1,  0,  1, -1, -1, -1, -1, -1, -1, -1, -1]), array([ 0,  0,  1,  0,  1,  1,  1,  1, -1, -1, -1, -1, -1, -1, -1, -1]), array([ 0,  0,  1,  1,  0,  1,  0,  1, -1, -1, -1, -1, -1, -1, -1, -1]), array([ 0,  0,  1,  1,  0,  1,  1,  1, -1, -1, -1, -1, -1, -1, -1, -1]), array([ 0,  0,  1,  1,  1,  1,  0,  1, -1, -1, -1, -1, -1, -1, -1, -1]), array([ 0,  1,  0,  0,  0,  1,  0,  1, -1, -1, -1, -1, -1, -1, -1, -1]), array([ 0,  1,  0,  0,  0,  1,  1,  1, -1, -1, -1, -1, -1, -1, -1, -1]), array([ 0,  1,  0,  0,  1,  1,  0,  1, -1, -1, -1, -1, -1, -1, -1, -1]), array([ 0,  1,  0,  0,  1,  1,  1,  1, -1, -1, -1, -1, -1, -1, -1, -1]), array([ 0,  1,  0,  1,  0,  1,  1,  1, -1, -1, -1, -1, -1, -1, -1, -1]), array([ 0,  1,  0,  1,  1,  1,  0,  1, -1, -1, -1, -1, -1, -1, -1, -1]), array([ 0,  1,  1,  0,  0,  1,  0,  1, -1, -1, -1, -1, -1, -1, -1, -1]), array([ 0,  1,  1,  0,  0,  1,  1,  1, -1, -1, -1, -1, -1, -1, -1, -1]), array([ 0,  1,  1,  0,  1,  1,  0,  1, -1, -1, -1, -1, -1, -1, -1, -1]), array([ 0,  1,  1,  0,  1,  1,  1,  1, -1, -1, -1, -1, -1, -1, -1, -1]), array([ 0,  1,  1,  1,  0,  1,  0,  1, -1, -1, -1, -1, -1, -1, -1, -1]), array([ 0,  1,  1,  1,  1,  1,  0,  1, -1, -1, -1, -1, -1, -1, -1, -1]), array([ 0,  1,  1,  1,  1,  1,  1,  1, -1, -1, -1, -1, -1, -1, -1, -1]), array([ 1,  0,  0,  0,  0,  0,  0,  1, -1, -1, -1, -1, -1, -1, -1, -1]), array([ 1,  0,  0,  0,  0,  0,  1,  1, -1, -1, -1, -1, -1, -1, -1, -1]), array([ 1,  0,  0,  0,  1,  0,  0,  1, -1, -1, -1, -1, -1, -1, -1, -1]), array([ 1,  0,  0,  0,  1,  0,  1,  1, -1, -1, -1, -1, -1, -1, -1, -1]), array([ 1,  0,  0,  1,  0,  0,  0,  1, -1, -1, -1, -1, -1, -1, -1, -1]), array([ 1,  0,  0,  1,  0,  0,  1,  1, -1, -1, -1, -1, -1, -1, -1, -1]), array([ 1,  0,  0,  1,  1,  0,  1,  1, -1, -1, -1, -1, -1, -1, -1, -1]), array([ 1,  0,  1,  0,  0,  0,  0,  1, -1, -1, -1, -1, -1, -1, -1, -1]), array([ 1,  0,  1,  0,  0,  0,  1,  1, -1, -1, -1, -1, -1, -1, -1, -1]), array([ 1,  0,  1,  0,  1,  0,  0,  1, -1, -1, -1, -1, -1, -1, -1, -1]), array([ 1,  0,  1,  0,  1,  0,  1,  1, -1, -1, -1, -1, -1, -1, -1, -1]), array([ 1,  0,  1,  1,  0,  0,  0,  1, -1, -1, -1, -1, -1, -1, -1, -1]), array([ 1,  0,  1,  1,  0,  0,  1,  1, -1, -1, -1, -1, -1, -1, -1, -1]), array([ 1,  0,  1,  1,  1,  0,  0,  1, -1, -1, -1, -1, -1, -1, -1, -1]), array([ 1,  1,  0,  0,  0,  0,  0,  1, -1, -1, -1, -1, -1, -1, -1, -1]), array([ 1,  1,  0,  0,  1,  0,  0,  1, -1, -1, -1, -1, -1, -1, -1, -1]), array([ 1,  1,  0,  0,  1,  0,  1,  1, -1, -1, -1, -1, -1, -1, -1, -1]), array([ 1,  1,  0,  1,  0,  0,  0,  1, -1, -1, -1, -1, -1, -1, -1, -1]), array([ 1,  1,  0,  1,  0,  0,  1,  1, -1, -1, -1, -1, -1, -1, -1, -1]), array([ 1,  1,  0,  1,  1,  0,  0,  1, -1, -1, -1, -1, -1, -1, -1, -1]), array([ 1,  1,  0,  1,  1,  0,  1,  1, -1, -1, -1, -1, -1, -1, -1, -1]), array([ 1,  1,  1,  0,  0,  0,  0,  1, -1, -1, -1, -1, -1, -1, -1, -1]), array([ 1,  1,  1,  0,  0,  0,  1,  1, -1, -1, -1, -1, -1, -1, -1, -1]), array([ 1,  1,  1,  0,  1,  0,  0,  1, -1, -1, -1, -1, -1, -1, -1, -1]), array([ 1,  1,  1,  0,  1,  0,  1,  1, -1, -1, -1, -1, -1, -1, -1, -1]), array([ 1,  1,  1,  1,  0,  0,  0,  1, -1, -1, -1, -1, -1, -1, -1, -1]), array([ 1,  1,  1,  1,  1,  0,  0,  1, -1, -1, -1, -1, -1, -1, -1, -1]), array([ 1,  1,  1,  1,  1,  0,  1,  1, -1, -1, -1, -1, -1, -1, -1, -1])];1.0;[array([ 0,  0,  0,  0,  0,  1,  0,  0, -1, -1, -1, -1, -1, -1, -1, -1]), array([ 0,  0,  0,  0,  0,  1,  1,  0, -1, -1, -1, -1, -1, -1, -1, -1]), array([ 0,  0,  0,  0,  0,  1,  1,  1, -1, -1, -1, -1, -1, -1, -1, -1]), array([ 0,  0,  0,  0,  1,  1,  0,  1, -1, -1, -1, -1, -1, -1, -1, -1]), array([ 0,  0,  0,  0,  1,  1,  1,  0, -1, -1, -1, -1, -1, -1, -1, -1]), array([ 0,  0,  0,  1,  0,  1,  0,  0, -1, -1, -1, -1, -1, -1, -1, -1]), array([ 0,  0,  0,  1,  0,  1,  0,  1, -1, -1, -1, -1, -1, -1, -1, -1]), array([ 0,  0,  0,  1,  0,  1,  1,  0, -1, -1, -1, -1, -1, -1, -1, -1]), array([ 0,  0,  0,  1,  0,  1,  1,  1, -1, -1, -1, -1, -1, -1, -1, -1]), array([ 0,  0,  0,  1,  1,  1,  0,  0, -1, -1, -1, -1, -1, -1, -1, -1]), array([ 0,  0,  0,  1,  1,  1,  0,  1, -1, -1, -1, -1, -1, -1, -1, -1]), array([ 0,  0,  0,  1,  1,  1,  1,  0, -1, -1, -1, -1, -1, -1, -1, -1]), array([ 0,  0,  0,  1,  1,  1,  1,  1, -1, -1, -1, -1, -1, -1, -1, -1]), array([ 0,  0,  1,  0,  0,  1,  0,  0, -1, -1, -1, -1, -1, -1, -1, -1]), array([ 0,  0,  1,  0,  0,  1,  0,  1, -1, -1, -1, -1, -1, -1, -1, -1]), array([ 0,  0,  1,  0,  0,  1,  1,  0, -1, -1, -1, -1, -1, -1, -1, -1]), array([ 0,  0,  1,  0,  0,  1,  1,  1, -1, -1, -1, -1, -1, -1, -1, -1]), array([ 0,  0,  1,  0,  1,  1,  0,  0, -1, -1, -1, -1, -1, -1, -1, -1]), array([ 0,  0,  1,  0,  1,  1,  0,  1, -1, -1, -1, -1, -1, -1, -1, -1]), array([ 0,  0,  1,  0,  1,  1,  1,  0, -1, -1, -1, -1, -1, -1, -1, -1]), array([ 0,  0,  1,  0,  1,  1,  1,  1, -1, -1, -1, -1, -1, -1, -1, -1]), array([ 0,  0,  1,  1,  0,  1,  0,  0, -1, -1, -1, -1, -1, -1, -1, -1]), array([ 0,  0,  1,  1,  0,  1,  0,  1, -1, -1, -1, -1, -1, -1, -1, -1]), array([ 0,  0,  1,  1,  0,  1,  1,  0, -1, -1, -1, -1, -1, -1, -1, -1]), array([ 0,  0,  1,  1,  0,  1,  1,  1, -1, -1, -1, -1, -1, -1, -1, -1]), array([ 0,  0,  1,  1,  1,  1,  0,  1, -1, -1, -1, -1, -1, -1, -1, -1]), array([ 0,  0,  1,  1,  1,  1,  1,  0, -1, -1, -1, -1, -1, -1, -1, -1]), array([ 0,  1,  0,  0,  0,  1,  0,  1, -1, -1, -1, -1, -1, -1, -1, -1]), array([ 0,  1,  0,  0,  0,  1,  1,  0, -1, -1, -1, -1, -1, -1, -1, -1]), array([ 0,  1,  0,  0,  0,  1,  1,  1, -1, -1, -1, -1, -1, -1, -1, -1]), array([ 0,  1,  0,  0,  1,  1,  0,  0, -1, -1, -1, -1, -1, -1, -1, -1]), array([ 0,  1,  0,  0,  1,  1,  0,  1, -1, -1, -1, -1, -1, -1, -1, -1]), array([ 0,  1,  0,  0,  1,  1,  1,  0, -1, -1, -1, -1, -1, -1, -1, -1]), array([ 0,  1,  0,  0,  1,  1,  1,  1, -1, -1, -1, -1, -1, -1, -1, -1]), array([ 0,  1,  0,  1,  0,  1,  0,  0, -1, -1, -1, -1, -1, -1, -1, -1]), array([ 0,  1,  0,  1,  0,  1,  1,  0, -1, -1, -1, -1, -1, -1, -1, -1]), array([ 0,  1,  0,  1,  0,  1,  1,  1, -1, -1, -1, -1, -1, -1, -1, -1]), array([ 0,  1,  0,  1,  1,  1,  0,  0, -1, -1, -1, -1, -1, -1, -1, -1]), array([ 0,  1,  0,  1,  1,  1,  0,  1, -1, -1, -1, -1, -1, -1, -1, -1]), array([ 0,  1,  0,  1,  1,  1,  1,  0, -1, -1, -1, -1, -1, -1, -1, -1]), array([ 0,  1,  1,  0,  0,  1,  0,  0, -1, -1, -1, -1, -1, -1, -1, -1]), array([ 0,  1,  1,  0,  0,  1,  0,  1, -1, -1, -1, -1, -1, -1, -1, -1]), array([ 0,  1,  1,  0,  0,  1,  1,  1, -1, -1, -1, -1, -1, -1, -1, -1]), array([ 0,  1,  1,  0,  1,  1,  0,  0, -1, -1, -1, -1, -1, -1, -1, -1]), array([ 0,  1,  1,  0,  1,  1,  0,  1, -1, -1, -1, -1, -1, -1, -1, -1]), array([ 0,  1,  1,  0,  1,  1,  1,  0, -1, -1, -1, -1, -1, -1, -1, -1]), array([ 0,  1,  1,  0,  1,  1,  1,  1, -1, -1, -1, -1, -1, -1, -1, -1]), array([ 0,  1,  1,  1,  0,  1,  0,  0, -1, -1, -1, -1, -1, -1, -1, -1]), array([ 0,  1,  1,  1,  0,  1,  0,  1, -1, -1, -1, -1, -1, -1, -1, -1]), array([ 0,  1,  1,  1,  0,  1,  1,  0, -1, -1, -1, -1, -1, -1, -1, -1]), array([ 0,  1,  1,  1,  1,  1,  0,  0, -1, -1, -1, -1, -1, -1, -1, -1]), array([ 0,  1,  1,  1,  1,  1,  0,  1, -1, -1, -1, -1, -1, -1, -1, -1]), array([ 0,  1,  1,  1,  1,  1,  1,  0, -1, -1, -1, -1, -1, -1, -1, -1]), array([ 0,  1,  1,  1,  1,  1,  1,  1, -1, -1, -1, -1, -1, -1, -1, -1])];100.0
