funcs_primary;min_nSAD_func;min_nSAD;min_nHammingCP_func;min_nHammingCP;basin_closest_1_func;basin_closest_1;attractors_closest_1_func;attractors_closest_1;max_percent_full_match_func;max_percent_full_match
"[[0. 0. 1. 1. 1. 1. 0. 1. 0. 1.]
 [1. 1. 0. 0. 0. 0. 1. 0. 1. 0.]]";[array([1., 1., 0., 0.])];0.0009007623135105325;[array([1., 1., 0., 0.])];0.375;[array([1., 1., 0., 0.])];1.0;[array([1., 1., 0., 0.])];1.0;[array([1., 0., 0., 0.]), array([1., 0., 1., 0.]), array([1., 1., 0., 0.]), array([1., 1., 1., 0.])];100.0
"[[1. 1. 0. 0. 0. 0. 0. 0. 1. 0.]
 [0. 0. 1. 1. 1. 1. 1. 1. 0. 1.]]";[array([0., 0., 1., 1.])];0.0009007623135105305;[array([0., 0., 1., 1.])];0.25;[array([0., 0., 1., 1.])];1.0;[array([0., 0., 1., 1.])];1.0;[array([0., 0., 0., 1.]), array([0., 0., 1., 1.]), array([0., 1., 0., 1.]), array([0., 1., 1., 1.])];100.0
"[[1. 0. 0. 0. 0. 0. 0. 1. 1. 0.]
 [0. 1. 1. 1. 1. 1. 1. 0. 0. 1.]]";[array([0., 0., 1., 1.])];0.0009007623135105319;[array([0., 0., 1., 1.])];0.25;[array([0., 0., 0., 1.]), array([0., 0., 1., 1.]), array([0., 1., 1., 1.])];1.0;[array([0., 0., 0., 1.]), array([0., 0., 1., 1.]), array([0., 1., 1., 1.])];1.0;[array([0., 0., 1., 1.]), array([0., 1., 0., 1.])];100.0
"[[1. 1. 1. 1. 0. 0. 1. 0. 1. 0.]
 [0. 0. 0. 0. 1. 1. 0. 1. 0. 1.]]";[array([0., 0., 1., 1.])];0.0009007623135105323;[array([0., 0., 1., 1.])];0.25;[array([0., 0., 1., 1.])];1.0;[array([0., 0., 1., 1.])];1.0;[array([0., 0., 1., 1.]), array([0., 1., 0., 1.])];100.0
"[[1. 1. 0. 1. 1. 0. 0. 0. 1. 1.]
 [0. 0. 1. 0. 0. 1. 1. 1. 0. 0.]]";[array([1., 1., 0., 0.])];0.0009007623135105337;[array([1., 1., 0., 0.])];0.25;[array([1., 1., 0., 0.])];1.0;[array([1., 1., 0., 0.])];1.0;[array([1., 0., 1., 0.]), array([1., 1., 0., 0.])];100.0
"[[1. 0. 0. 0. 1. 1. 1. 0. 1. 0.]
 [0. 1. 1. 1. 0. 0. 0. 1. 0. 1.]]";[array([1., 1., 0., 0.])];0.0009007623135105319;[array([1., 1., 0., 0.])];0.25;[array([0., 1., 0., 0.]), array([1., 1., 0., 0.]), array([1., 1., 0., 1.])];1.0;[array([0., 1., 0., 0.]), array([1., 1., 0., 0.]), array([1., 1., 0., 1.])];1.0;[array([0., 1., 0., 1.]), array([1., 1., 0., 0.])];100.0
"[[1. 0. 0. 1. 1. 1. 1. 1. 0. 0.]
 [0. 1. 1. 0. 0. 0. 0. 0. 1. 1.]]";[array([1., 1., 0., 0.])];0.0009007623135105312;[array([1., 1., 0., 0.]), array([1., 1., 0., 1.])];0.625;[array([0., 1., 0., 0.]), array([1., 1., 0., 0.]), array([1., 1., 0., 1.])];1.0;[array([0., 1., 0., 0.]), array([1., 1., 0., 0.]), array([1., 1., 0., 1.])];1.0;[array([0., 1., 0., 1.]), array([1., 1., 0., 0.])];100.0
"[[1. 0. 1. 0. 0. 0. 1. 1. 0. 0.]
 [0. 1. 0. 1. 1. 1. 0. 0. 1. 1.]]";[array([0., 0., 1., 1.])];0.000900762313510532;[array([0., 1., 0., 1.])];0.75;[array([0., 0., 0., 1.]), array([0., 0., 1., 1.]), array([0., 1., 1., 1.])];1.0;[array([0., 0., 0., 1.]), array([0., 0., 1., 1.]), array([0., 1., 1., 1.])];1.0;[array([0., 0., 1., 1.]), array([0., 1., 0., 1.])];100.0
"[[1. 0. 0. 1. 1. 1. 1. 0. 1. 0.]
 [0. 1. 1. 0. 0. 0. 0. 1. 0. 1.]]";[array([1., 1., 0., 0.])];0.0009007623135105316;[array([1., 1., 0., 0.])];0.25;[array([0., 1., 0., 0.]), array([1., 1., 0., 0.]), array([1., 1., 0., 1.])];1.0;[array([0., 1., 0., 0.]), array([1., 1., 0., 0.]), array([1., 1., 0., 1.])];1.0;[array([0., 1., 0., 1.]), array([1., 1., 0., 0.])];100.0
"[[0. 0. 0. 1. 0. 1. 1. 1. 1. 1.]
 [1. 1. 1. 0. 1. 0. 0. 0. 0. 0.]]";[array([0., 0., 1., 1.])];0.0009007623135105321;[array([0., 0., 1., 0.])];0.0;[array([0., 0., 1., 1.])];1.0;[array([0., 0., 1., 1.])];1.0;[array([0., 0., 1., 0.]), array([0., 0., 1., 1.]), array([1., 0., 1., 0.]), array([1., 0., 1., 1.])];100.0
"[[0. 1. 0. 0. 1. 1. 0. 1. 1. 0.]
 [1. 0. 1. 1. 0. 0. 1. 0. 0. 1.]]";[array([1., 1., 0., 0.])];0.0009007623135105319;[array([1., 1., 0., 0.])];0.375;[array([0., 1., 0., 0.]), array([1., 1., 0., 0.]), array([1., 1., 0., 1.])];1.0;[array([0., 1., 0., 0.]), array([1., 1., 0., 0.]), array([1., 1., 0., 1.])];1.0;[array([0., 1., 0., 1.]), array([1., 1., 0., 0.])];100.0
"[[0. 1. 1. 1. 1. 0. 1. 1. 0. 0.]
 [1. 0. 0. 0. 0. 1. 0. 0. 1. 1.]]";[array([1., 1., 0., 0.])];0.0009007623135105315;[array([1., 1., 0., 0.])];0.375;[array([0., 1., 0., 0.]), array([1., 1., 0., 0.]), array([1., 1., 0., 1.])];1.0;[array([0., 1., 0., 0.]), array([1., 1., 0., 0.]), array([1., 1., 0., 1.])];1.0;[array([0., 1., 0., 1.]), array([1., 1., 0., 0.])];100.0
"[[0. 1. 0. 0. 0. 1. 1. 1. 0. 1.]
 [1. 0. 1. 1. 1. 0. 0. 0. 1. 0.]]";[array([0., 0., 1., 1.])];0.0009007623135105323;[array([0., 0., 1., 1.])];0.375;[array([0., 0., 1., 0.]), array([0., 0., 1., 1.]), array([1., 0., 1., 1.])];1.0;[array([0., 0., 1., 0.]), array([0., 0., 1., 1.]), array([1., 0., 1., 1.])];1.0;[array([0., 0., 1., 1.]), array([1., 0., 1., 0.])];100.0
"[[0. 0. 1. 1. 1. 0. 1. 0. 1. 0.]
 [1. 1. 0. 0. 0. 1. 0. 1. 0. 1.]]";[array([1., 1., 0., 0.])];0.0009007623135105327;[array([0., 1., 0., 0.]), array([1., 1., 0., 0.])];0.5;[array([1., 1., 0., 0.])];1.0;[array([1., 1., 0., 0.])];1.0;[array([0., 1., 0., 1.]), array([1., 1., 0., 0.])];100.0
"[[1. 1. 1. 1. 0. 1. 0. 1. 0. 1.]
 [0. 0. 0. 0. 1. 0. 1. 0. 1. 0.]]";[array([0., 0., 1., 1.])];0.0009007623135105333;[array([0., 0., 1., 1.])];0.375;[array([0., 0., 1., 1.])];1.0;[array([0., 0., 1., 1.])];1.0;[array([0., 0., 1., 0.]), array([0., 0., 1., 1.]), array([1., 0., 1., 0.]), array([1., 0., 1., 1.])];100.0
"[[0. 1. 0. 1. 1. 0. 0. 1. 0. 1.]
 [1. 0. 1. 0. 0. 1. 1. 0. 1. 0.]]";[array([1., 1., 0., 0.])];0.0009007623135105324;[array([1., 1., 0., 0.])];0.25;[array([1., 0., 0., 0.]), array([1., 1., 0., 0.]), array([1., 1., 1., 0.])];1.0;[array([1., 0., 0., 0.]), array([1., 1., 0., 0.]), array([1., 1., 1., 0.])];1.0;[array([1., 0., 1., 0.]), array([1., 1., 0., 0.])];100.0
"[[1. 0. 0. 0. 1. 0. 1. 1. 1. 0.]
 [0. 1. 1. 1. 0. 1. 0. 0. 0. 1.]]";[array([1., 1., 0., 0.])];0.0009007623135105313;[array([0., 1., 0., 0.])];0.375;[array([0., 1., 0., 0.]), array([1., 1., 0., 0.]), array([1., 1., 0., 1.])];1.0;[array([0., 1., 0., 0.]), array([1., 1., 0., 0.]), array([1., 1., 0., 1.])];1.0;[array([0., 1., 0., 1.]), array([1., 1., 0., 0.])];100.0
"[[1. 1. 0. 1. 1. 0. 1. 1. 0. 1.]
 [0. 0. 1. 0. 0. 1. 0. 0. 1. 0.]]";[array([1., 1., 0., 0.])];0.0009007623135105316;[array([1., 1., 0., 0.])];0.5;[array([1., 1., 0., 0.])];1.0;[array([1., 1., 0., 0.])];1.0;[array([1., 0., 0., 0.]), array([1., 0., 1., 0.]), array([1., 1., 0., 0.]), array([1., 1., 1., 0.])];100.0
"[[0. 1. 1. 1. 1. 1. 1. 0. 0. 1.]
 [1. 0. 0. 0. 0. 0. 0. 1. 1. 0.]]";[array([1., 1., 0., 0.])];0.0009007623135105323;[array([1., 1., 0., 0.])];0.25;[array([1., 0., 0., 0.]), array([1., 1., 0., 0.]), array([1., 1., 1., 0.])];1.0;[array([1., 0., 0., 0.]), array([1., 1., 0., 0.]), array([1., 1., 1., 0.])];1.0;[array([1., 0., 1., 0.]), array([1., 1., 0., 0.])];100.0
"[[0. 1. 0. 0. 0. 1. 1. 1. 0. 0.]
 [1. 0. 1. 1. 1. 0. 0. 0. 1. 1.]]";[array([0., 0., 1., 1.])];0.0009007623135105324;[array([0., 0., 1., 1.])];0.375;[array([0., 0., 0., 1.]), array([0., 0., 1., 1.]), array([0., 1., 1., 1.])];1.0;[array([0., 0., 0., 1.]), array([0., 0., 1., 1.]), array([0., 1., 1., 1.])];1.0;[array([0., 0., 1., 1.]), array([0., 1., 0., 1.])];100.0
"[[1. 0. 0. 0. 0. 0. 1. 0. 0. 1.]
 [0. 1. 1. 1. 1. 1. 0. 1. 1. 0.]]";[array([0., 0., 1., 1.])];0.0009007623135105317;[array([0., 0., 1., 1.])];0.25;[array([0., 0., 1., 0.]), array([0., 0., 1., 1.]), array([1., 0., 1., 1.])];1.0;[array([0., 0., 1., 0.]), array([0., 0., 1., 1.]), array([1., 0., 1., 1.])];1.0;[array([0., 0., 1., 1.]), array([1., 0., 1., 0.])];100.0
"[[1. 0. 0. 1. 1. 0. 1. 1. 0. 0.]
 [0. 1. 1. 0. 0. 1. 0. 0. 1. 1.]]";[array([1., 1., 0., 0.])];0.0009007623135105318;[array([1., 1., 0., 0.])];0.0;[array([0., 1., 0., 0.]), array([1., 1., 0., 0.]), array([1., 1., 0., 1.])];1.0;[array([0., 1., 0., 0.]), array([1., 1., 0., 0.]), array([1., 1., 0., 1.])];1.0;[array([0., 1., 0., 1.]), array([1., 1., 0., 0.])];100.0
"[[1. 0. 0. 1. 0. 0. 1. 0. 1. 1.]
 [0. 1. 1. 0. 1. 1. 0. 1. 0. 0.]]";[array([0., 0., 1., 1.])];0.0009007623135105314;[array([0., 0., 1., 0.]), array([1., 0., 1., 1.])];0.25;[array([0., 0., 1., 0.]), array([0., 0., 1., 1.]), array([1., 0., 1., 1.])];1.0;[array([0., 0., 1., 0.]), array([0., 0., 1., 1.]), array([1., 0., 1., 1.])];1.0;[array([0., 0., 1., 1.]), array([1., 0., 1., 0.])];100.0
"[[0. 0. 0. 1. 1. 0. 0. 1. 0. 1.]
 [1. 1. 1. 0. 0. 1. 1. 0. 1. 0.]]";[array([1., 1., 0., 0.])];0.0009007623135105327;[array([1., 1., 0., 0.])];0.625;[array([1., 1., 0., 0.])];1.0;[array([1., 1., 0., 0.])];1.0;[array([1., 0., 1., 0.]), array([1., 1., 0., 0.])];100.0
"[[0. 0. 0. 1. 0. 0. 0. 1. 0. 0.]
 [1. 1. 1. 0. 1. 1. 1. 0. 1. 1.]]";[array([0., 0., 1., 1.])];0.0009007623135105331;[array([0., 0., 1., 1.])];0.625;[array([0., 0., 1., 1.])];1.0;[array([0., 0., 1., 1.])];1.0;[array([0., 0., 0., 1.]), array([0., 0., 1., 1.]), array([0., 1., 0., 1.]), array([0., 1., 1., 1.])];100.0
"[[0. 0. 0. 0. 1. 1. 1. 0. 0. 0.]
 [1. 1. 1. 1. 0. 0. 0. 1. 1. 1.]]";[array([1., 1., 0., 0.])];0.0009007623135105332;[array([1., 1., 0., 0.])];0.625;[array([1., 1., 0., 0.])];1.0;[array([1., 1., 0., 0.])];1.0;[array([0., 1., 0., 1.]), array([1., 1., 0., 0.])];100.0
"[[1. 1. 0. 0. 1. 1. 1. 1. 1. 1.]
 [0. 0. 1. 1. 0. 0. 0. 0. 0. 0.]]";[array([1., 1., 0., 0.])];0.0009007623135105293;[array([1., 1., 0., 0.])];0.0;[array([1., 1., 0., 0.])];1.0;[array([1., 1., 0., 0.])];1.0;[array([1., 0., 0., 0.]), array([1., 0., 1., 0.]), array([1., 1., 0., 0.]), array([1., 1., 1., 0.])];100.0
"[[1. 1. 0. 1. 1. 0. 0. 1. 1. 1.]
 [0. 0. 1. 0. 0. 1. 1. 0. 0. 0.]]";[array([1., 1., 0., 0.])];0.0009007623135105321;[array([1., 1., 0., 0.]), array([1., 1., 1., 0.])];0.375;[array([1., 1., 0., 0.])];1.0;[array([1., 1., 0., 0.])];1.0;[array([1., 0., 0., 0.]), array([1., 0., 1., 0.]), array([1., 1., 0., 0.]), array([1., 1., 1., 0.])];100.0
"[[1. 1. 0. 1. 1. 1. 1. 0. 1. 1.]
 [0. 0. 1. 0. 0. 0. 0. 1. 0. 0.]]";[array([1., 1., 0., 0.])];0.0009007623135105316;[array([1., 0., 0., 0.])];0.375;[array([1., 1., 0., 0.])];1.0;[array([1., 1., 0., 0.])];1.0;[array([1., 0., 1., 0.]), array([1., 1., 0., 0.])];100.0
"[[0. 0. 1. 1. 0. 0. 0. 0. 0. 0.]
 [1. 1. 0. 0. 1. 1. 1. 1. 1. 1.]]";[array([0., 0., 1., 1.])];0.0009007623135105307;[array([0., 0., 1., 1.])];0.0;[array([0., 0., 1., 1.])];1.0;[array([0., 0., 1., 1.])];1.0;[array([0., 0., 1., 1.]), array([0., 1., 0., 1.])];100.0
"[[1. 0. 0. 0. 0. 0. 1. 0. 0. 0.]
 [0. 1. 1. 1. 1. 1. 0. 1. 1. 1.]]";[array([0., 0., 1., 1.])];0.0009007623135105316;[array([0., 0., 0., 1.]), array([0., 0., 1., 1.])];0.375;[array([0., 0., 0., 1.]), array([0., 0., 1., 1.]), array([0., 1., 1., 1.])];1.0;[array([0., 0., 0., 1.]), array([0., 0., 1., 1.]), array([0., 1., 1., 1.])];1.0;[array([0., 0., 1., 1.]), array([0., 1., 0., 1.])];100.0
"[[1. 0. 1. 1. 1. 0. 0. 1. 0. 1.]
 [0. 1. 0. 0. 0. 1. 1. 0. 1. 0.]]";[array([1., 1., 0., 0.])];0.0009007623135105329;[array([1., 0., 0., 0.]), array([1., 1., 1., 0.])];0.75;[array([1., 0., 0., 0.]), array([1., 1., 0., 0.]), array([1., 1., 1., 0.])];1.0;[array([1., 0., 0., 0.]), array([1., 1., 0., 0.]), array([1., 1., 1., 0.])];1.0;[array([1., 0., 1., 0.]), array([1., 1., 0., 0.])];100.0
"[[0. 0. 1. 1. 1. 0. 0. 0. 0. 1.]
 [1. 1. 0. 0. 0. 1. 1. 1. 1. 0.]]";[array([1., 1., 0., 0.])];0.0009007623135105305;[array([1., 1., 1., 0.])];0.375;[array([1., 1., 0., 0.])];1.0;[array([1., 1., 0., 0.])];1.0;[array([1., 0., 0., 0.]), array([1., 0., 1., 0.]), array([1., 1., 0., 0.]), array([1., 1., 1., 0.])];100.0
"[[1. 0. 0. 1. 0. 0. 1. 1. 0. 1.]
 [0. 1. 1. 0. 1. 1. 0. 0. 1. 0.]]";[array([0., 0., 1., 1.])];0.0009007623135105312;[array([0., 0., 1., 1.])];0.25;[array([0., 0., 1., 0.]), array([0., 0., 1., 1.]), array([1., 0., 1., 1.])];1.0;[array([0., 0., 1., 0.]), array([0., 0., 1., 1.]), array([1., 0., 1., 1.])];1.0;[array([0., 0., 1., 1.]), array([1., 0., 1., 0.])];100.0
"[[0. 0. 0. 0. 0. 0. 0. 1. 0. 1.]
 [1. 1. 1. 1. 1. 1. 1. 0. 1. 0.]]";[array([0., 0., 1., 1.])];0.0009007623135105339;[array([1., 0., 1., 1.])];0.0;[array([0., 0., 1., 1.])];1.0;[array([0., 0., 1., 1.])];1.0;[array([0., 0., 1., 1.]), array([1., 0., 1., 0.])];100.0
"[[1. 1. 1. 1. 1. 0. 0. 0. 1. 1.]
 [0. 0. 0. 0. 0. 1. 1. 1. 0. 0.]]";[array([1., 1., 0., 0.])];0.0009007623135105331;[array([1., 1., 0., 0.])];0.375;[array([1., 1., 0., 0.])];1.0;[array([1., 1., 0., 0.])];1.0;[array([1., 0., 1., 0.]), array([1., 1., 0., 0.])];100.0
"[[0. 1. 0. 0. 0. 0. 0. 0. 1. 0.]
 [1. 0. 1. 1. 1. 1. 1. 1. 0. 1.]]";[array([0., 0., 1., 1.])];0.0009007623135105327;[array([0., 0., 0., 1.]), array([0., 0., 1., 1.]), array([0., 1., 1., 1.])];0.625;[array([0., 0., 0., 1.]), array([0., 0., 1., 1.]), array([0., 1., 1., 1.])];1.0;[array([0., 0., 0., 1.]), array([0., 0., 1., 1.]), array([0., 1., 1., 1.])];1.0;[array([0., 0., 1., 1.]), array([0., 1., 0., 1.])];100.0
"[[1. 1. 0. 1. 0. 0. 1. 1. 0. 1.]
 [0. 0. 1. 0. 1. 1. 0. 0. 1. 0.]]";[array([0., 0., 1., 1.])];0.0009007623135105313;[array([0., 0., 1., 1.])];0.5;[array([0., 0., 1., 1.])];1.0;[array([0., 0., 1., 1.])];1.0;[array([0., 0., 1., 0.]), array([0., 0., 1., 1.]), array([1., 0., 1., 0.]), array([1., 0., 1., 1.])];100.0
"[[1. 1. 1. 0. 1. 1. 0. 0. 1. 1.]
 [0. 0. 0. 1. 0. 0. 1. 1. 0. 0.]]";[array([1., 1., 0., 0.])];0.0009007623135105342;[array([1., 1., 0., 0.])];0.0;[array([1., 1., 0., 0.])];1.0;[array([1., 1., 0., 0.])];1.0;[array([1., 0., 0., 0.]), array([1., 0., 1., 0.]), array([1., 1., 0., 0.]), array([1., 1., 1., 0.])];100.0
"[[0. 1. 1. 1. 1. 1. 0. 1. 1. 1.]
 [1. 0. 0. 0. 0. 0. 1. 0. 0. 0.]]";[array([1., 1., 0., 0.])];0.0009007623135105321;[array([1., 1., 0., 0.])];0.375;[array([1., 0., 0., 0.]), array([1., 1., 0., 0.]), array([1., 1., 1., 0.])];1.0;[array([1., 0., 0., 0.]), array([1., 1., 0., 0.]), array([1., 1., 1., 0.])];1.0;[array([1., 0., 1., 0.]), array([1., 1., 0., 0.])];100.0
"[[0. 0. 0. 1. 0. 1. 0. 0. 1. 0.]
 [1. 1. 1. 0. 1. 0. 1. 1. 0. 1.]]";[array([0., 0., 1., 1.])];0.000900762313510535;[array([0., 0., 1., 1.])];0.625;[array([0., 0., 1., 1.])];1.0;[array([0., 0., 1., 1.])];1.0;[array([0., 0., 1., 1.]), array([0., 1., 0., 1.])];100.0
"[[1. 1. 0. 1. 1. 0. 0. 0. 0. 0.]
 [0. 0. 1. 0. 0. 1. 1. 1. 1. 1.]]";[array([1., 1., 0., 0.])];0.0009007623135105337;[array([0., 1., 0., 0.]), array([1., 1., 0., 0.])];0.0;[array([1., 1., 0., 0.])];1.0;[array([1., 1., 0., 0.])];1.0;[array([0., 1., 0., 1.]), array([1., 1., 0., 0.])];100.0
"[[1. 1. 0. 1. 0. 1. 1. 1. 0. 0.]
 [0. 0. 1. 0. 1. 0. 0. 0. 1. 1.]]";[array([0., 0., 1., 1.])];0.0009007623135105317;[array([0., 0., 0., 1.]), array([0., 0., 1., 1.])];0.25;[array([0., 0., 1., 1.])];1.0;[array([0., 0., 1., 1.])];1.0;[array([0., 0., 0., 1.]), array([0., 0., 1., 1.]), array([0., 1., 0., 1.]), array([0., 1., 1., 1.])];100.0
"[[1. 1. 0. 1. 1. 1. 1. 0. 0. 0.]
 [0. 0. 1. 0. 0. 0. 0. 1. 1. 1.]]";[array([1., 1., 0., 0.])];0.0009007623135105323;[array([1., 1., 0., 0.])];0.375;[array([1., 1., 0., 0.])];1.0;[array([1., 1., 0., 0.])];1.0;[array([0., 1., 0., 1.]), array([1., 1., 0., 0.])];100.0
"[[1. 1. 1. 0. 0. 0. 0. 0. 0. 0.]
 [0. 0. 0. 1. 1. 1. 1. 1. 1. 1.]]";[array([0., 0., 1., 1.])];0.0009007623135105327;[array([0., 0., 1., 1.])];0.0;[array([0., 0., 1., 1.])];1.0;[array([0., 0., 1., 1.])];1.0;[array([0., 0., 1., 1.]), array([0., 1., 0., 1.])];100.0
"[[0. 1. 0. 1. 0. 0. 1. 1. 0. 0.]
 [1. 0. 1. 0. 1. 1. 0. 0. 1. 1.]]";[array([0., 0., 1., 1.])];0.0009007623135105321;[array([0., 0., 1., 1.])];0.0;[array([0., 0., 0., 1.]), array([0., 0., 1., 1.]), array([0., 1., 1., 1.])];1.0;[array([0., 0., 0., 1.]), array([0., 0., 1., 1.]), array([0., 1., 1., 1.])];1.0;[array([0., 0., 1., 1.]), array([0., 1., 0., 1.])];100.0
"[[1. 1. 0. 0. 1. 1. 0. 1. 0. 0.]
 [0. 0. 1. 1. 0. 0. 1. 0. 1. 1.]]";[array([1., 1., 0., 0.])];0.0009007623135105321;[array([1., 1., 0., 0.])];0.5;[array([1., 1., 0., 0.])];1.0;[array([1., 1., 0., 0.])];1.0;[array([0., 1., 0., 1.]), array([1., 1., 0., 0.])];100.0
"[[1. 1. 0. 1. 1. 0. 0. 1. 0. 1.]
 [0. 0. 1. 0. 0. 1. 1. 0. 1. 0.]]";[array([1., 1., 0., 0.])];0.0009007623135105316;[array([1., 0., 0., 0.])];0.625;[array([1., 1., 0., 0.])];1.0;[array([1., 1., 0., 0.])];1.0;[array([1., 0., 1., 0.]), array([1., 1., 0., 0.])];100.0
"[[1. 0. 1. 1. 0. 0. 0. 1. 0. 1.]
 [0. 1. 0. 0. 1. 1. 1. 0. 1. 0.]]";[array([0., 0., 1., 1.])];0.000900762313510532;[array([0., 0., 1., 1.])];0.0;[array([0., 0., 1., 0.]), array([0., 0., 1., 1.]), array([1., 0., 1., 1.])];1.0;[array([0., 0., 1., 0.]), array([0., 0., 1., 1.]), array([1., 0., 1., 1.])];1.0;[array([0., 0., 1., 1.]), array([1., 0., 1., 0.])];100.0
"[[0. 1. 1. 1. 0. 0. 1. 0. 0. 1.]
 [1. 0. 0. 0. 1. 1. 0. 1. 1. 0.]]";[array([0., 0., 1., 1.])];0.000900762313510532;[array([0., 0., 1., 1.])];0.25;[array([0., 0., 1., 0.]), array([0., 0., 1., 1.]), array([1., 0., 1., 1.])];1.0;[array([0., 0., 1., 0.]), array([0., 0., 1., 1.]), array([1., 0., 1., 1.])];1.0;[array([0., 0., 1., 1.]), array([1., 0., 1., 0.])];100.0
"[[0. 0. 1. 0. 0. 1. 0. 0. 1. 1.]
 [1. 1. 0. 1. 1. 0. 1. 1. 0. 0.]]";[array([0., 0., 1., 1.])];0.0009007623135105317;[array([0., 0., 1., 0.]), array([0., 0., 1., 1.])];0.25;[array([0., 0., 1., 1.])];1.0;[array([0., 0., 1., 1.])];1.0;[array([0., 0., 1., 0.]), array([0., 0., 1., 1.]), array([1., 0., 1., 0.]), array([1., 0., 1., 1.])];100.0
"[[0. 0. 1. 1. 1. 0. 1. 1. 1. 1.]
 [1. 1. 0. 0. 0. 1. 0. 0. 0. 0.]]";[array([1., 1., 0., 0.])];0.0009007623135105328;[array([1., 1., 0., 0.])];0.375;[array([1., 1., 0., 0.])];1.0;[array([1., 1., 0., 0.])];1.0;[array([1., 0., 1., 0.]), array([1., 1., 0., 0.])];100.0
"[[1. 0. 1. 1. 0. 1. 0. 0. 1. 1.]
 [0. 1. 0. 0. 1. 0. 1. 1. 0. 0.]]";[array([0., 0., 1., 1.])];0.000900762313510532;[array([0., 0., 1., 0.]), array([0., 0., 1., 1.])];0.375;[array([0., 0., 1., 0.]), array([0., 0., 1., 1.]), array([1., 0., 1., 1.])];1.0;[array([0., 0., 1., 0.]), array([0., 0., 1., 1.]), array([1., 0., 1., 1.])];1.0;[array([0., 0., 1., 1.]), array([1., 0., 1., 0.])];100.0
"[[1. 0. 1. 0. 0. 0. 0. 1. 0. 1.]
 [0. 1. 0. 1. 1. 1. 1. 0. 1. 0.]]";[array([0., 0., 1., 1.])];0.0009007623135105325;[array([0., 0., 1., 1.])];0.0;[array([0., 0., 1., 0.]), array([0., 0., 1., 1.]), array([1., 0., 1., 1.])];1.0;[array([0., 0., 1., 0.]), array([0., 0., 1., 1.]), array([1., 0., 1., 1.])];1.0;[array([0., 0., 1., 1.]), array([1., 0., 1., 0.])];100.0
"[[0. 0. 1. 0. 0. 0. 1. 0. 0. 1.]
 [1. 1. 0. 1. 1. 1. 0. 1. 1. 0.]]";[array([0., 0., 1., 1.])];0.0009007623135105327;[array([0., 0., 1., 1.])];0.75;[array([0., 0., 1., 1.])];1.0;[array([0., 0., 1., 1.])];1.0;[array([0., 0., 1., 1.]), array([1., 0., 1., 0.])];100.0
"[[0. 1. 0. 1. 0. 0. 1. 1. 1. 1.]
 [1. 0. 1. 0. 1. 1. 0. 0. 0. 0.]]";[array([0., 0., 1., 1.])];0.000900762313510532;[array([0., 0., 1., 1.]), array([1., 0., 1., 0.]), array([1., 0., 1., 1.])];0.75;[array([0., 0., 1., 0.]), array([0., 0., 1., 1.]), array([1., 0., 1., 1.])];1.0;[array([0., 0., 1., 0.]), array([0., 0., 1., 1.]), array([1., 0., 1., 1.])];1.0;[array([0., 0., 1., 1.]), array([1., 0., 1., 0.])];100.0
"[[0. 1. 1. 1. 1. 0. 1. 1. 1. 0.]
 [1. 0. 0. 0. 0. 1. 0. 0. 0. 1.]]";[array([1., 1., 0., 0.])];0.0009007623135105318;[array([0., 1., 0., 0.])];0.375;[array([0., 1., 0., 0.]), array([1., 1., 0., 0.]), array([1., 1., 0., 1.])];1.0;[array([0., 1., 0., 0.]), array([1., 1., 0., 0.]), array([1., 1., 0., 1.])];1.0;[array([0., 1., 0., 1.]), array([1., 1., 0., 0.])];100.0
"[[1. 1. 1. 1. 0. 0. 0. 0. 1. 1.]
 [0. 0. 0. 0. 1. 1. 1. 1. 0. 0.]]";[array([0., 0., 1., 1.])];0.0009007623135105338;[array([0., 0., 1., 1.])];0.0;[array([0., 0., 1., 1.])];1.0;[array([0., 0., 1., 1.])];1.0;[array([0., 0., 1., 1.]), array([1., 0., 1., 0.])];100.0
"[[0. 1. 0. 1. 0. 0. 0. 1. 1. 0.]
 [1. 0. 1. 0. 1. 1. 1. 0. 0. 1.]]";[array([0., 0., 1., 1.])];0.0009007623135105316;[array([0., 0., 1., 1.])];0.25;[array([0., 0., 0., 1.]), array([0., 0., 1., 1.]), array([0., 1., 1., 1.])];1.0;[array([0., 0., 0., 1.]), array([0., 0., 1., 1.]), array([0., 1., 1., 1.])];1.0;[array([0., 0., 1., 1.]), array([0., 1., 0., 1.])];100.0
"[[1. 1. 0. 1. 0. 1. 0. 1. 0. 1.]
 [0. 0. 1. 0. 1. 0. 1. 0. 1. 0.]]";[array([0., 0., 1., 1.])];0.0009007623135105321;[array([1., 0., 1., 1.])];0.625;[array([0., 0., 1., 1.])];1.0;[array([0., 0., 1., 1.])];1.0;[array([0., 0., 1., 0.]), array([0., 0., 1., 1.]), array([1., 0., 1., 0.]), array([1., 0., 1., 1.])];100.0
"[[0. 0. 1. 0. 0. 0. 0. 1. 0. 1.]
 [1. 1. 0. 1. 1. 1. 1. 0. 1. 0.]]";[array([0., 0., 1., 1.])];0.0009007623135105338;[array([0., 0., 1., 0.])];0.625;[array([0., 0., 1., 1.])];1.0;[array([0., 0., 1., 1.])];1.0;[array([0., 0., 1., 1.]), array([1., 0., 1., 0.])];100.0
"[[0. 1. 1. 0. 0. 1. 0. 0. 1. 0.]
 [1. 0. 0. 1. 1. 0. 1. 1. 0. 1.]]";[array([0., 0., 1., 1.])];0.0009007623135105323;[array([0., 0., 1., 1.])];0.375;[array([0., 0., 0., 1.]), array([0., 0., 1., 1.]), array([0., 1., 1., 1.])];1.0;[array([0., 0., 0., 1.]), array([0., 0., 1., 1.]), array([0., 1., 1., 1.])];1.0;[array([0., 0., 1., 1.]), array([0., 1., 0., 1.])];100.0
"[[1. 0. 1. 1. 1. 1. 1. 0. 1. 1.]
 [0. 1. 0. 0. 0. 0. 0. 1. 0. 0.]]";[array([1., 1., 0., 0.])];0.0009007623135105323;[array([1., 0., 0., 0.]), array([1., 0., 1., 0.])];0.75;[array([1., 0., 0., 0.]), array([1., 1., 0., 0.]), array([1., 1., 1., 0.])];1.0;[array([1., 0., 0., 0.]), array([1., 1., 0., 0.]), array([1., 1., 1., 0.])];1.0;[array([1., 0., 1., 0.]), array([1., 1., 0., 0.])];100.0
"[[0. 0. 1. 1. 0. 0. 0. 0. 1. 0.]
 [1. 1. 0. 0. 1. 1. 1. 1. 0. 1.]]";[array([0., 0., 1., 1.])];0.0009007623135105303;[array([0., 0., 1., 1.])];0.0;[array([0., 0., 1., 1.])];1.0;[array([0., 0., 1., 1.])];1.0;[array([0., 0., 0., 1.]), array([0., 0., 1., 1.]), array([0., 1., 0., 1.]), array([0., 1., 1., 1.])];100.0
"[[1. 1. 1. 0. 1. 0. 1. 0. 0. 0.]
 [0. 0. 0. 1. 0. 1. 0. 1. 1. 1.]]";[array([1., 1., 0., 0.])];0.0009007623135105324;[array([1., 1., 0., 0.])];0.375;[array([1., 1., 0., 0.])];1.0;[array([1., 1., 0., 0.])];1.0;[array([0., 1., 0., 0.]), array([0., 1., 0., 1.]), array([1., 1., 0., 0.]), array([1., 1., 0., 1.])];100.0
"[[1. 0. 0. 1. 1. 0. 1. 0. 1. 0.]
 [0. 1. 1. 0. 0. 1. 0. 1. 0. 1.]]";[array([1., 1., 0., 0.])];0.0009007623135105312;[array([1., 1., 0., 0.])];0.25;[array([0., 1., 0., 0.]), array([1., 1., 0., 0.]), array([1., 1., 0., 1.])];1.0;[array([0., 1., 0., 0.]), array([1., 1., 0., 0.]), array([1., 1., 0., 1.])];1.0;[array([0., 1., 0., 1.]), array([1., 1., 0., 0.])];100.0
"[[0. 0. 1. 0. 0. 0. 0. 0. 1. 0.]
 [1. 1. 0. 1. 1. 1. 1. 1. 0. 1.]]";[array([0., 0., 1., 1.])];0.0009007623135105333;[array([0., 0., 1., 1.])];0.375;[array([0., 0., 1., 1.])];1.0;[array([0., 0., 1., 1.])];1.0;[array([0., 0., 0., 1.]), array([0., 0., 1., 1.]), array([0., 1., 0., 1.]), array([0., 1., 1., 1.])];100.0
"[[1. 1. 1. 1. 0. 0. 1. 1. 1. 0.]
 [0. 0. 0. 0. 1. 1. 0. 0. 0. 1.]]";[array([0., 0., 1., 1.])];0.000900762313510532;[array([0., 0., 0., 1.]), array([0., 1., 0., 1.])];0.5;[array([0., 0., 1., 1.])];1.0;[array([0., 0., 1., 1.])];1.0;[array([0., 0., 0., 1.]), array([0., 0., 1., 1.]), array([0., 1., 0., 1.]), array([0., 1., 1., 1.])];100.0
"[[1. 0. 0. 1. 1. 0. 0. 0. 0. 0.]
 [0. 1. 1. 0. 0. 1. 1. 1. 1. 1.]]";[array([1., 1., 0., 0.])];0.0009007623135105318;[array([1., 1., 0., 0.])];0.375;[array([0., 1., 0., 0.]), array([1., 1., 0., 0.]), array([1., 1., 0., 1.])];1.0;[array([0., 1., 0., 0.]), array([1., 1., 0., 0.]), array([1., 1., 0., 1.])];1.0;[array([0., 1., 0., 1.]), array([1., 1., 0., 0.])];100.0
"[[0. 1. 1. 1. 0. 1. 0. 1. 1. 0.]
 [1. 0. 0. 0. 1. 0. 1. 0. 0. 1.]]";[array([0., 0., 1., 1.])];0.0009007623135105321;[array([0., 0., 0., 1.]), array([0., 0., 1., 1.])];0.25;[array([0., 0., 0., 1.]), array([0., 0., 1., 1.]), array([0., 1., 1., 1.])];1.0;[array([0., 0., 0., 1.]), array([0., 0., 1., 1.]), array([0., 1., 1., 1.])];1.0;[array([0., 0., 1., 1.]), array([0., 1., 0., 1.])];100.0
"[[0. 1. 0. 0. 0. 1. 1. 1. 1. 0.]
 [1. 0. 1. 1. 1. 0. 0. 0. 0. 1.]]";[array([0., 0., 1., 1.])];0.0009007623135105326;[array([0., 0., 1., 1.])];0.625;[array([0., 0., 0., 1.]), array([0., 0., 1., 1.]), array([0., 1., 1., 1.])];1.0;[array([0., 0., 0., 1.]), array([0., 0., 1., 1.]), array([0., 1., 1., 1.])];1.0;[array([0., 0., 1., 1.]), array([0., 1., 0., 1.])];100.0
"[[0. 1. 0. 0. 1. 1. 0. 1. 0. 1.]
 [1. 0. 1. 1. 0. 0. 1. 0. 1. 0.]]";[array([1., 1., 0., 0.])];0.0009007623135105317;[array([1., 1., 0., 0.])];0.0;[array([1., 0., 0., 0.]), array([1., 1., 0., 0.]), array([1., 1., 1., 0.])];1.0;[array([1., 0., 0., 0.]), array([1., 1., 0., 0.]), array([1., 1., 1., 0.])];1.0;[array([1., 0., 1., 0.]), array([1., 1., 0., 0.])];100.0
"[[0. 0. 1. 0. 0. 0. 1. 1. 1. 1.]
 [1. 1. 0. 1. 1. 1. 0. 0. 0. 0.]]";[array([0., 0., 1., 1.])];0.0009007623135105311;[array([0., 0., 1., 1.])];0.25;[array([0., 0., 1., 1.])];1.0;[array([0., 0., 1., 1.])];1.0;[array([0., 0., 1., 1.]), array([1., 0., 1., 0.])];100.0
"[[1. 1. 0. 1. 0. 0. 0. 1. 0. 0.]
 [0. 0. 1. 0. 1. 1. 1. 0. 1. 1.]]";[array([0., 0., 1., 1.])];0.0009007623135105311;[array([0., 0., 1., 1.])];0.5;[array([0., 0., 1., 1.])];1.0;[array([0., 0., 1., 1.])];1.0;[array([0., 0., 0., 1.]), array([0., 0., 1., 1.]), array([0., 1., 0., 1.]), array([0., 1., 1., 1.])];100.0
"[[1. 1. 1. 0. 0. 1. 1. 1. 1. 1.]
 [0. 0. 0. 1. 1. 0. 0. 0. 0. 0.]]";[array([0., 0., 1., 1.])];0.0009007623135105319;[array([1., 0., 1., 1.])];0.0;[array([0., 0., 1., 1.])];1.0;[array([0., 0., 1., 1.])];1.0;[array([0., 0., 1., 0.]), array([0., 0., 1., 1.]), array([1., 0., 1., 0.]), array([1., 0., 1., 1.])];100.0
"[[0. 1. 1. 1. 1. 1. 1. 0. 0. 0.]
 [1. 0. 0. 0. 0. 0. 0. 1. 1. 1.]]";[array([1., 1., 0., 0.])];0.000900762313510532;[array([1., 1., 0., 0.])];0.5;[array([0., 1., 0., 0.]), array([1., 1., 0., 0.]), array([1., 1., 0., 1.])];1.0;[array([0., 1., 0., 0.]), array([1., 1., 0., 0.]), array([1., 1., 0., 1.])];1.0;[array([0., 1., 0., 1.]), array([1., 1., 0., 0.])];100.0
"[[0. 1. 0. 0. 1. 0. 0. 0. 0. 1.]
 [1. 0. 1. 1. 0. 1. 1. 1. 1. 0.]]";[array([1., 1., 0., 0.])];0.0009007623135105325;[array([1., 1., 0., 0.])];0.375;[array([1., 0., 0., 0.]), array([1., 1., 0., 0.]), array([1., 1., 1., 0.])];1.0;[array([1., 0., 0., 0.]), array([1., 1., 0., 0.]), array([1., 1., 1., 0.])];1.0;[array([1., 0., 1., 0.]), array([1., 1., 0., 0.])];100.0
"[[0. 1. 1. 0. 1. 0. 1. 1. 0. 0.]
 [1. 0. 0. 1. 0. 1. 0. 0. 1. 1.]]";[array([1., 1., 0., 0.])];0.000900762313510532;[array([1., 1., 0., 0.])];0.25;[array([0., 1., 0., 0.]), array([1., 1., 0., 0.]), array([1., 1., 0., 1.])];1.0;[array([0., 1., 0., 0.]), array([1., 1., 0., 0.]), array([1., 1., 0., 1.])];1.0;[array([0., 1., 0., 1.]), array([1., 1., 0., 0.])];100.0
"[[1. 0. 0. 0. 1. 1. 1. 0. 0. 1.]
 [0. 1. 1. 1. 0. 0. 0. 1. 1. 0.]]";[array([1., 1., 0., 0.])];0.0009007623135105319;[array([1., 1., 0., 0.])];0.25;[array([1., 0., 0., 0.]), array([1., 1., 0., 0.]), array([1., 1., 1., 0.])];1.0;[array([1., 0., 0., 0.]), array([1., 1., 0., 0.]), array([1., 1., 1., 0.])];1.0;[array([1., 0., 1., 0.]), array([1., 1., 0., 0.])];100.0
"[[0. 0. 0. 0. 0. 1. 1. 0. 0. 0.]
 [1. 1. 1. 1. 1. 0. 0. 1. 1. 1.]]";[array([0., 0., 1., 1.])];0.0009007623135105321;[array([0., 0., 1., 1.])];0.25;[array([0., 0., 1., 1.])];1.0;[array([0., 0., 1., 1.])];1.0;[array([0., 0., 1., 1.]), array([0., 1., 0., 1.])];100.0
"[[0. 1. 0. 1. 1. 0. 1. 0. 0. 0.]
 [1. 0. 1. 0. 0. 1. 0. 1. 1. 1.]]";[array([1., 1., 0., 0.])];0.000900762313510532;[array([1., 1., 0., 0.])];0.0;[array([0., 1., 0., 0.]), array([1., 1., 0., 0.]), array([1., 1., 0., 1.])];1.0;[array([0., 1., 0., 0.]), array([1., 1., 0., 0.]), array([1., 1., 0., 1.])];1.0;[array([0., 1., 0., 1.]), array([1., 1., 0., 0.])];100.0
"[[0. 0. 0. 1. 0. 0. 1. 1. 0. 1.]
 [1. 1. 1. 0. 1. 1. 0. 0. 1. 0.]]";[array([0., 0., 1., 1.])];0.0009007623135105333;[array([0., 0., 1., 1.])];0.375;[array([0., 0., 1., 1.])];1.0;[array([0., 0., 1., 1.])];1.0;[array([0., 0., 1., 0.]), array([0., 0., 1., 1.]), array([1., 0., 1., 0.]), array([1., 0., 1., 1.])];100.0
"[[0. 0. 0. 0. 1. 0. 1. 1. 0. 0.]
 [1. 1. 1. 1. 0. 1. 0. 0. 1. 1.]]";[array([1., 1., 0., 0.])];0.0009007623135105323;[array([1., 1., 0., 0.])];0.875;[array([1., 1., 0., 0.])];1.0;[array([1., 1., 0., 0.])];1.0;[array([0., 1., 0., 1.]), array([1., 1., 0., 0.])];100.0
"[[0. 1. 0. 0. 1. 0. 0. 1. 1. 0.]
 [1. 0. 1. 1. 0. 1. 1. 0. 0. 1.]]";[array([1., 1., 0., 0.])];0.0009007623135105318;[array([1., 1., 0., 0.])];0.625;[array([0., 1., 0., 0.]), array([1., 1., 0., 0.]), array([1., 1., 0., 1.])];1.0;[array([0., 1., 0., 0.]), array([1., 1., 0., 0.]), array([1., 1., 0., 1.])];1.0;[array([0., 1., 0., 1.]), array([1., 1., 0., 0.])];100.0
"[[0. 0. 0. 0. 0. 1. 0. 0. 1. 1.]
 [1. 1. 1. 1. 1. 0. 1. 1. 0. 0.]]";[array([0., 0., 1., 1.])];0.0009007623135105311;[array([0., 0., 1., 1.])];0.0;[array([0., 0., 1., 1.])];1.0;[array([0., 0., 1., 1.])];1.0;[array([0., 0., 1., 0.]), array([0., 0., 1., 1.]), array([1., 0., 1., 0.]), array([1., 0., 1., 1.])];100.0
"[[0. 1. 1. 1. 1. 0. 1. 0. 1. 1.]
 [1. 0. 0. 0. 0. 1. 0. 1. 0. 0.]]";[array([1., 1., 0., 0.])];0.0009007623135105313;[array([1., 1., 1., 0.])];0.5;[array([1., 0., 0., 0.]), array([1., 1., 0., 0.]), array([1., 1., 1., 0.])];1.0;[array([1., 0., 0., 0.]), array([1., 1., 0., 0.]), array([1., 1., 1., 0.])];1.0;[array([1., 0., 1., 0.]), array([1., 1., 0., 0.])];100.0
"[[0. 0. 1. 0. 0. 0. 0. 1. 0. 0.]
 [1. 1. 0. 1. 1. 1. 1. 0. 1. 1.]]";[array([0., 0., 1., 1.])];0.000900762313510532;[array([0., 0., 1., 1.])];0.5;[array([0., 0., 1., 1.])];1.0;[array([0., 0., 1., 1.])];1.0;[array([0., 0., 0., 1.]), array([0., 0., 1., 1.]), array([0., 1., 0., 1.]), array([0., 1., 1., 1.])];100.0
"[[1. 0. 0. 0. 0. 1. 0. 1. 0. 0.]
 [0. 1. 1. 1. 1. 0. 1. 0. 1. 1.]]";[array([0., 0., 1., 1.])];0.0009007623135105318;[array([0., 0., 0., 1.]), array([0., 0., 1., 1.]), array([0., 1., 1., 1.])];0.625;[array([0., 0., 0., 1.]), array([0., 0., 1., 1.]), array([0., 1., 1., 1.])];1.0;[array([0., 0., 0., 1.]), array([0., 0., 1., 1.]), array([0., 1., 1., 1.])];1.0;[array([0., 0., 1., 1.]), array([0., 1., 0., 1.])];100.0
"[[0. 1. 1. 0. 1. 1. 1. 1. 0. 0.]
 [1. 0. 0. 1. 0. 0. 0. 0. 1. 1.]]";[array([1., 1., 0., 0.])];0.0009007623135105316;[array([0., 1., 0., 0.]), array([0., 1., 0., 1.]), array([1., 1., 0., 0.])];0.625;[array([0., 1., 0., 0.]), array([1., 1., 0., 0.]), array([1., 1., 0., 1.])];1.0;[array([0., 1., 0., 0.]), array([1., 1., 0., 0.]), array([1., 1., 0., 1.])];1.0;[array([0., 1., 0., 1.]), array([1., 1., 0., 0.])];100.0
"[[0. 0. 0. 0. 1. 1. 1. 1. 0. 0.]
 [1. 1. 1. 1. 0. 0. 0. 0. 1. 1.]]";[array([1., 1., 0., 0.])];0.0009007623135105333;[array([1., 1., 0., 0.])];0.0;[array([1., 1., 0., 0.])];1.0;[array([1., 1., 0., 0.])];1.0;[array([0., 1., 0., 0.]), array([0., 1., 0., 1.]), array([1., 1., 0., 0.]), array([1., 1., 0., 1.])];100.0
"[[0. 1. 1. 1. 0. 1. 1. 0. 0. 0.]
 [1. 0. 0. 0. 1. 0. 0. 1. 1. 1.]]";[array([0., 0., 1., 1.])];0.0009007623135105316;[array([0., 0., 1., 1.])];0.5;[array([0., 0., 0., 1.]), array([0., 0., 1., 1.]), array([0., 1., 1., 1.])];1.0;[array([0., 0., 0., 1.]), array([0., 0., 1., 1.]), array([0., 1., 1., 1.])];1.0;[array([0., 0., 1., 1.]), array([0., 1., 0., 1.])];100.0
"[[1. 0. 0. 1. 0. 1. 1. 1. 1. 1.]
 [0. 1. 1. 0. 1. 0. 0. 0. 0. 0.]]";[array([0., 0., 1., 1.])];0.0009007623135105323;[array([0., 0., 1., 1.])];0.375;[array([0., 0., 1., 0.]), array([0., 0., 1., 1.]), array([1., 0., 1., 1.])];1.0;[array([0., 0., 1., 0.]), array([0., 0., 1., 1.]), array([1., 0., 1., 1.])];1.0;[array([0., 0., 1., 1.]), array([1., 0., 1., 0.])];100.0
"[[0. 0. 0. 1. 0. 0. 0. 0. 1. 1.]
 [1. 1. 1. 0. 1. 1. 1. 1. 0. 0.]]";[array([0., 0., 1., 1.])];0.0009007623135105333;[array([0., 0., 1., 1.])];0.0;[array([0., 0., 1., 1.])];1.0;[array([0., 0., 1., 1.])];1.0;[array([0., 0., 1., 1.]), array([1., 0., 1., 0.])];100.0
"[[0. 1. 0. 1. 1. 1. 1. 0. 1. 0.]
 [1. 0. 1. 0. 0. 0. 0. 1. 0. 1.]]";[array([1., 1., 0., 0.])];0.0009007623135105326;[array([1., 1., 0., 0.])];0.25;[array([0., 1., 0., 0.]), array([1., 1., 0., 0.]), array([1., 1., 0., 1.])];1.0;[array([0., 1., 0., 0.]), array([1., 1., 0., 0.]), array([1., 1., 0., 1.])];1.0;[array([0., 1., 0., 1.]), array([1., 1., 0., 0.])];100.0
"[[0. 0. 0. 1. 1. 0. 1. 0. 1. 0.]
 [1. 1. 1. 0. 0. 1. 0. 1. 0. 1.]]";[array([1., 1., 0., 0.])];0.0009007623135105319;[array([1., 1., 0., 0.])];0.625;[array([1., 1., 0., 0.])];1.0;[array([1., 1., 0., 0.])];1.0;[array([0., 1., 0., 1.]), array([1., 1., 0., 0.])];100.0
"[[0. 0. 0. 0. 1. 0. 0. 0. 0. 1.]
 [1. 1. 1. 1. 0. 1. 1. 1. 1. 0.]]";[array([1., 1., 0., 0.])];0.0009007623135105323;[array([1., 1., 1., 0.])];0.375;[array([1., 1., 0., 0.])];1.0;[array([1., 1., 0., 0.])];1.0;[array([1., 0., 0., 0.]), array([1., 0., 1., 0.]), array([1., 1., 0., 0.]), array([1., 1., 1., 0.])];100.0
"[[1. 0. 1. 0. 1. 0. 1. 1. 0. 0.]
 [0. 1. 0. 1. 0. 1. 0. 0. 1. 1.]]";[array([1., 1., 0., 0.])];0.0009007623135105318;[array([1., 1., 0., 0.])];0.0;[array([0., 1., 0., 0.]), array([1., 1., 0., 0.]), array([1., 1., 0., 1.])];1.0;[array([0., 1., 0., 0.]), array([1., 1., 0., 0.]), array([1., 1., 0., 1.])];1.0;[array([0., 1., 0., 1.]), array([1., 1., 0., 0.])];100.0
"[[1. 1. 0. 1. 0. 0. 1. 0. 1. 1.]
 [0. 0. 1. 0. 1. 1. 0. 1. 0. 0.]]";[array([0., 0., 1., 1.])];0.0009007623135105294;[array([0., 0., 1., 1.])];0.625;[array([0., 0., 1., 1.])];1.0;[array([0., 0., 1., 1.])];1.0;[array([0., 0., 1., 0.]), array([0., 0., 1., 1.]), array([1., 0., 1., 0.]), array([1., 0., 1., 1.])];100.0
"[[1. 1. 0. 1. 0. 1. 0. 0. 0. 1.]
 [0. 0. 1. 0. 1. 0. 1. 1. 1. 0.]]";[array([0., 0., 1., 1.])];0.0009007623135105319;[array([0., 0., 1., 0.]), array([1., 0., 1., 1.])];0.25;[array([0., 0., 1., 1.])];1.0;[array([0., 0., 1., 1.])];1.0;[array([0., 0., 1., 1.]), array([1., 0., 1., 0.])];100.0
"[[1. 1. 0. 1. 0. 0. 0. 0. 1. 1.]
 [0. 0. 1. 0. 1. 1. 1. 1. 0. 0.]]";[array([0., 0., 1., 1.])];0.0009007623135105318;[array([0., 0., 1., 1.])];0.25;[array([0., 0., 1., 1.])];1.0;[array([0., 0., 1., 1.])];1.0;[array([0., 0., 1., 1.]), array([1., 0., 1., 0.])];100.0
